-217.264084	1331.573364	17.387985
-217.453613	1330.699463	17.387985
-217.666107	1329.703735	17.387985
-217.89978	1328.595093	17.387985
-218.092529	1327.672607	17.387985
-218.291183	1326.715454	17.387985
-218.49884	1325.708862	17.387985
-218.7146	1324.657593	17.387985
-218.911453	1323.693726	17.387985
-219.106995	1322.732666	17.387985
-219.306564	1321.747925	17.387985
-219.509552	1320.742432	17.387985
-219.715393	1319.719238	17.387985
-219.909363	1318.751343	17.387985
-220.104767	1317.773071	17.387985
-220.301132	1316.786743	17.387985
-220.497986	1315.794678	17.387985
-220.694778	1314.799072	17.387985
-220.890762	1313.804077	17.387985
-221.085663	1312.810913	17.387985
-221.279053	1311.821411	17.387985
-221.470505	1310.838135	17.387985
-221.659485	1309.863037	17.387985
-221.853897	1308.855469	17.387985
-222.048508	1307.841431	17.387985
-222.238586	1306.845459	17.387985
-222.423584	1305.870239	17.387985
-222.602905	1304.918457	17.387985
-222.798279	1303.873169	17.387985
-222.989136	1302.842041	17.387985
-223.1698	1301.854858	17.387985
-223.339432	1300.915527	17.387985
-223.528107	1299.852295	17.387985
-223.71254	1298.785889	17.387985
-223.873108	1297.823486	17.387985
-224.049286	1296.69812	17.387985
-224.206985	1295.501343	17.387985
-224.289978	1294.432495	17.387985
-224.352493	1293.361084	17.387985
-224.405426	1292.317749	17.387985
-224.451553	1291.306641	17.387985
-224.495087	1290.263062	17.387985
-224.533569	1289.263428	17.387985
-224.570267	1288.233276	17.387985
-224.603485	1287.22644	17.387985
-224.634628	1286.20752	17.387985
-224.663177	1285.19165	17.387985
-224.689255	1284.177612	17.387985
-224.712921	1283.159058	17.387985
-224.733948	1282.141724	17.387985
-224.75209	1281.129517	17.387985
-224.767456	1280.10022	17.387985
-224.77919	1279.089233	17.387985
-224.787338	1278.050415	17.387985
-224.790833	1277.033691	17.387985
-224.788757	1275.981812	17.387985
-224.779846	1274.957886	17.387985
-224.776093	1274.227905	17.387985
-224.787872	1273.275146	17.387985
-224.810989	1272.22876	17.387985
-224.835754	1271.333374	17.387985
-224.866562	1270.352661	17.387983
-224.903046	1269.293701	17.387983
-224.939804	1268.296387	17.387983
-224.976364	1267.351318	17.387983
-225.015991	1266.367798	17.387983
-225.058456	1265.348999	17.387983
-225.103577	1264.29834	17.387983
-225.146362	1263.327515	17.387983
-225.190186	1262.354126	17.387983
-225.235733	1261.362549	17.387983
-225.282852	1260.355103	17.387981
-225.331406	1259.334106	17.387981
-225.379898	1258.330078	17.387981
-225.428284	1257.342896	17.387981
-225.477615	1256.349365	17.387981
-225.527847	1255.350952	17.387981
-225.578842	1254.349731	17.387981
-225.630524	1253.347412	17.387981
-225.683029	1252.34082	17.387981
-225.736008	1251.336426	17.387981
-225.789368	1250.336426	17.38798
-225.842957	1249.343018	17.38798
-225.896713	1248.35791	17.38798
-225.951614	1247.362549	17.38798
-226.008972	1246.334717	17.38798
-226.066132	1245.32312	17.387978
-226.122925	1244.329834	17.387978
-226.17926	1243.357544	17.387978
-226.235596	1242.397339	17.387978
-226.298721	1241.337402	17.387978
-226.360672	1240.314575	17.387978
-226.421219	1239.33252	17.387978
-226.480194	1238.394653	17.387978
-226.545715	1237.376099	17.387978
-226.615692	1236.319702	17.387978
-226.681793	1235.357422	17.387976
-226.743469	1234.498291	17.387976
-226.830811	1233.367554	17.387976
-226.90097	1232.574829	17.387976
-226.969376	1232.025391	17.387976
-227.118225	1231.14209	17.387976
-227.278824	1230.30603	17.387976
-227.471069	1229.373535	17.387976
-227.679474	1228.410156	17.387976
-227.883606	1227.496948	17.387976
-228.104721	1226.531372	17.387976
-228.333878	1225.549927	17.387976
-228.555359	1224.615234	17.387976
-228.786011	1223.653442	17.387976
-229.024429	1222.668701	17.387976
-229.258408	1221.709595	17.387976
-229.494308	1220.748657	17.387976
-229.733765	1219.777588	17.387976
-229.975464	1218.801147	17.387976
-230.216599	1217.829224	17.387976
-230.458084	1216.857422	17.387976
-230.698868	1215.888794	17.387976
-230.941559	1214.911743	17.387976
-231.186798	1213.922729	17.387976
-231.427902	1212.947266	17.387976
-231.663742	1211.989136	17.387976
-231.910675	1210.979614	17.387976
-232.15242	1209.983032	17.387976
-232.383652	1209.019409	17.387976
-232.623184	1208.006714	17.387976
-232.861618	1206.977905	17.387976
-233.079605	1206.01062	17.387976
-233.317261	1204.909302	17.387976
-233.528671	1203.853516	17.387976
-233.706619	1202.859619	17.387976
-233.882294	1201.80896	17.387976
-234.044662	1200.789063	17.387976
-234.201584	1199.76355	17.387976
-234.352188	1198.747192	17.387976
-234.497787	1197.737305	17.387976
-234.640762	1196.72229	17.387976
-234.779465	1195.717285	17.387976
-234.915634	1194.713135	17.387976
-235.050613	1193.702393	17.387976
-235.181854	1192.706421	17.387976
-235.313629	1191.694458	17.387976
-235.441895	1190.699585	17.387976
-235.570694	1189.692627	17.387976
-235.696869	1188.700317	17.387976
-235.824753	1187.691772	17.387976
-235.946732	1186.731934	17.387976
-236.076874	1185.719727	17.387976
-236.201141	1184.796021	17.387976
-236.329391	1184.000732	17.387976
-236.497574	1182.959961	17.387976
-236.654343	1181.885864	17.387976
-236.797745	1180.790649	17.387976
-236.917206	1179.787476	17.387976
-237.03363	1178.726929	17.387976
-237.136093	1177.723145	17.387976
-237.238922	1176.647949	17.387976
-237.326096	1175.682739	17.387976
-237.415466	1174.641113	17.387976
-237.499863	1173.608276	17.387976
-237.575653	1172.639526	17.387976
-237.652802	1171.613281	17.387976
-237.730698	1170.535522	17.387976
-237.796524	1169.592163	17.387976
-237.863174	1168.605469	17.387976
-237.930679	1167.574097	17.387976
-237.999039	1166.496826	17.387976
-238.057297	1165.551758	17.387976
-238.115753	1164.579224	17.387976
-238.174744	1163.572144	17.387976
-238.234299	1162.530029	17.387976
-238.29332	1161.470459	17.387976
-238.343918	1160.543701	17.387976
-238.395477	1159.583252	17.387976
-238.448029	1158.589844	17.387976
-238.50148	1157.564697	17.387976
-238.555847	1156.508179	17.387976
-238.609192	1155.460327	17.387976
-238.656876	1154.513306	17.387976
-238.705185	1153.545532	17.387976
-238.754074	1152.557495	17.387976
-238.803574	1151.549805	17.387976
-238.853592	1150.522949	17.387976
-238.90419	1149.477417	17.387976
-238.953369	1148.454712	17.387976
-238.999329	1147.493286	17.387976
-239.0457	1146.518311	17.387976
-239.092438	1145.530273	17.387976
-239.139572	1144.529541	17.387976
-239.187042	1143.516357	17.387976
-239.234894	1142.491089	17.387976
-239.283081	1141.454224	17.387976
-239.329239	1140.457275	17.387976
-239.374176	1139.483154	17.387976
-239.419388	1138.500244	17.387976
-239.464859	1137.508667	17.387976
-239.510574	1136.508789	17.387976
-239.556519	1135.500977	17.387976
-239.602692	1134.485474	17.387976
-239.649078	1133.462769	17.387976
-239.695145	1132.44458	17.387976
-239.739395	1131.464722	17.387976
-239.783798	1130.47876	17.387976
-239.828369	1129.487549	17.387976
-239.873123	1128.490967	17.387976
-239.917999	1127.48938	17.387976
-239.963028	1126.483032	17.387976
-240.008194	1125.47229	17.387976
-240.053467	1124.457153	17.387976
-240.098373	1123.449097	17.387976
-240.142395	1122.460083	17.387976
-240.186493	1121.467896	17.387976
-240.230698	1120.472534	17.387976
-240.274994	1119.474609	17.387976
-240.319336	1118.473877	17.387976
-240.363739	1117.470947	17.387976
-240.408234	1116.465942	17.387976
-240.452789	1115.459106	17.387976
-240.497284	1114.452515	17.387976
-240.541336	1113.455811	17.387976
-240.585419	1112.457886	17.387976
-240.629532	1111.459229	17.387976
-240.673645	1110.459839	17.387976
-240.717789	1109.459839	17.387976
-240.761932	1108.459839	17.387976
-240.806076	1107.459839	17.387976
-240.850204	1106.459839	17.387976
-240.894348	1105.460571	17.387976
-240.93869	1104.456421	17.387976
-240.983063	1103.452026	17.387976
-241.027374	1102.448975	17.387976
-241.071671	1101.447144	17.387976
-241.115906	1100.446899	17.387976
-241.160095	1099.448608	17.387976
-241.204239	1098.452271	17.387976
-241.248291	1097.458252	17.387976
-241.292267	1096.466797	17.387976
-241.336868	1095.462524	17.387976
-241.381836	1094.450317	17.387976
-241.426712	1093.44165	17.387976
-241.471497	1092.436646	17.387976
-241.516159	1091.435425	17.387976
-241.560699	1090.438354	17.387976
-241.605087	1089.445801	17.387976
-241.649353	1088.457764	17.387976
-241.693466	1087.474609	17.387976
-241.738708	1086.468628	17.387976
-241.784668	1085.448364	17.387976
-241.830444	1084.434448	17.387976
-241.876007	1083.42688	17.387976
-241.921387	1082.42627	17.387976
-241.966553	1081.432617	17.387976
-242.011505	1080.446411	17.387976
-242.056198	1079.467896	17.387976
-242.100693	1078.497192	17.387976
