-223.470306	1077.642212	17.387976
-223.425705	1078.615234	17.387976
-223.38089	1079.596191	17.387976
-223.335831	1080.584717	17.387976
-223.290558	1081.580322	17.387976
-223.245117	1082.58313	17.387976
-223.199448	1083.592529	17.387976
-223.153595	1084.608276	17.387976
-223.107574	1085.630249	17.387976
-223.062256	1086.637817	17.387976
-223.018082	1087.622192	17.387976
-222.97374	1088.611694	17.387976
-222.929291	1089.605591	17.387976
-222.88472	1090.60376	17.387976
-222.839996	1091.606079	17.387976
-222.795166	1092.612183	17.387976
-222.750244	1093.621826	17.387976
-222.705231	1094.634888	17.387976
-222.660599	1095.639893	17.387976
-222.616592	1096.632202	17.387976
-222.57251	1097.626831	17.387976
-222.528351	1098.623779	17.387976
-222.484131	1099.622559	17.387976
-222.43988	1100.623291	17.387976
-222.395584	1101.625488	17.387976
-222.351227	1102.628906	17.387976
-222.306854	1103.633545	17.387976
-222.262497	1104.637817	17.387976
-222.218353	1105.637451	17.387976
-222.17421	1106.637329	17.387976
-222.130066	1107.637451	17.387976
-222.085938	1108.637451	17.387976
-222.041794	1109.637207	17.387976
-221.997696	1110.636475	17.387976
-221.953583	1111.63501	17.387976
-221.9095	1112.632568	17.387976
-221.865479	1113.628906	17.387976
-221.820984	1114.635132	17.387976
-221.776459	1115.641479	17.387976
-221.73201	1116.645996	17.387976
-221.687607	1117.648315	17.387976
-221.643295	1118.648315	17.387976
-221.599045	1119.64563	17.387976
-221.554871	1120.640137	17.387976
-221.510818	1121.63147	17.387976
-221.466827	1122.619629	17.387976
-221.421967	1123.626587	17.387976
-221.376755	1124.640503	17.387976
-221.331635	1125.650146	17.387976
-221.286682	1126.655151	17.387976
-221.241852	1127.655396	17.387976
-221.197159	1128.650391	17.387976
-221.152664	1129.640259	17.387976
-221.108322	1130.62439	17.387976
-221.064148	1131.602539	17.387976
-221.018204	1132.618774	17.387976
-220.971893	1133.639404	17.387976
-220.925812	1134.652832	17.387976
-220.879974	1135.658203	17.387976
-220.834366	1136.655762	17.387976
-220.789017	1137.644775	17.387976
-220.743942	1138.625	17.387976
-220.699142	1139.596313	17.387976
-220.653122	1140.590088	17.387976
-220.605072	1141.623535	17.387976
-220.557419	1142.64502	17.387976
-220.510117	1143.654297	17.387976
-220.463181	1144.651123	17.387976
-220.416641	1145.634766	17.387976
-220.370483	1146.605225	17.387976
-220.324768	1147.561646	17.387976
-220.275848	1148.578979	17.387976
-220.22554	1149.618286	17.387976
-220.175842	1150.638672	17.387976
-220.126694	1151.639404	17.387976
-220.078186	1152.619873	17.387976
-220.030273	1153.57959	17.387976
-219.983017	1154.517822	17.387976
-219.930237	1155.555176	17.387976
-219.876465	1156.599731	17.387976
-219.823669	1157.611938	17.387976
-219.771896	1158.590942	17.387976
-219.721191	1159.535645	17.387976
-219.671524	1160.44519	17.387976
-219.613907	1161.479614	17.387976
-219.555878	1162.494995	17.387976
-219.498489	1163.474487	17.387976
-219.441757	1164.418701	17.387976
-219.38533	1165.333984	17.387976
-219.31929	1166.374634	17.387976
-219.254288	1167.36792	17.387976
-219.190308	1168.314941	17.387976
-219.12738	1169.216797	17.387976
-219.053284	1170.24231	17.387976
-218.980286	1171.213257	17.387976
-218.909042	1172.123657	17.387976
-218.830383	1173.086426	17.387976
-218.74794	1174.047241	17.387976
-218.668549	1174.926514	17.387976
-218.576447	1175.889526	17.387976
-218.486679	1176.769043	17.387976
-218.387711	1177.670776	17.387976
-218.290207	1178.489746	17.387976
-218.17952	1179.335815	17.387976
-218.065491	1180.117188	17.387976
-217.934586	1180.926025	17.387976
-217.740173	1182.147461	17.387976
-217.583069	1183.311157	17.387976
-217.446457	1184.373535	17.387976
-217.322922	1185.345703	17.387976
-217.195282	1186.352295	17.387976
-217.070419	1187.334229	17.387976
-216.94371	1188.324829	17.387976
-216.818161	1189.298706	17.387976
-216.689728	1190.28479	17.387976
-216.562454	1191.250854	17.387976
-216.432159	1192.226563	17.387976
-216.301483	1193.190186	17.387976
-216.16925	1194.148193	17.387976
-216.034103	1195.107666	17.387976
-215.897919	1196.052124	17.387976
-215.759064	1196.98938	17.387976
-215.617188	1197.916748	17.387976
-215.474533	1198.812988	17.387976
-215.327072	1199.694946	17.387976
-215.204956	1200.380127	17.387976
-215.062225	1201.091431	17.387976
-214.870956	1201.977295	17.387976
-214.681396	1202.818359	17.387976
-214.465271	1203.750854	17.387976
-214.242249	1204.693848	17.387976
-214.023041	1205.607178	17.387976
-213.790939	1206.564087	17.387976
-213.551422	1207.543213	17.387976
-213.320831	1208.47998	17.387976
-213.083572	1209.439819	17.387976
-212.840881	1210.418701	17.387976
-212.599472	1211.390503	17.387976
-212.358826	1212.358521	17.387976
-212.116379	1213.334229	17.387976
-211.87323	1214.314209	17.387976
-211.628387	1215.303589	17.387976
-211.384598	1216.291992	17.387976
-211.143204	1217.275513	17.387976
-210.902298	1218.262817	17.387976
-210.655136	1219.283936	17.387976
-210.414017	1220.289429	17.387976
-210.180115	1221.276489	17.387976
-209.934937	1222.326538	17.387976
-209.694138	1223.378052	17.387976
-209.466446	1224.396606	17.387976
-209.225647	1225.510132	17.387976
-208.990234	1226.652344	17.387976
-208.7733	1227.782593	17.387976
-208.522766	1229.278442	17.387976
-208.34079	1230.746582	17.387976
-208.243195	1231.84314	17.387976
-208.143829	1233.128662	17.387976
-208.077499	1234.052612	17.387976
-208.007919	1235.065308	17.387978
-207.935211	1236.162842	17.387978
-207.867706	1237.212402	17.387978
-207.807266	1238.173828	17.387978
-207.745407	1239.177246	17.387978
-207.682281	1240.219482	17.387978
-207.618057	1241.297241	17.387978
-207.560852	1242.272217	17.387978
-207.503738	1243.258423	17.387978
-207.446182	1244.264771	17.387978
-207.388321	1245.289185	17.38798
-207.330246	1246.329468	17.38798
-207.274704	1247.336426	17.38798
-207.220352	1248.332764	17.38798
-207.166168	1249.33728	17.38798
-207.112198	1250.348267	17.387981
-207.058624	1251.363892	17.387981
-207.005539	1252.381714	17.387981
-206.953293	1253.395264	17.387981
-206.901718	1254.407959	17.387981
-206.850876	1255.418213	17.387981
-206.800934	1256.423828	17.387981
-206.751953	1257.423584	17.387981
-206.702805	1258.44104	17.387981
-206.653549	1259.47644	17.387981
-206.605743	1260.499023	17.387983
-206.559448	1261.506714	17.387983
-206.514832	1262.497314	17.387983
-206.471252	1263.486816	17.387983
-206.425156	1264.560181	17.387983
-206.381653	1265.60376	17.387983
-206.340912	1266.614868	17.387983
-206.303146	1267.590698	17.387983
-206.264954	1268.626953	17.387983
-206.226715	1269.737549	17.387983
-206.193939	1270.780762	17.387985
-206.167053	1271.753662	17.387985
-206.140915	1272.938965	17.387985
-206.126328	1274.134766	17.387985
-206.131348	1275.194458	17.387985
-206.139023	1276.076904	17.387985
-206.140839	1277.015625	17.387985
-206.13765	1277.943604	17.387985
-206.130096	1278.905518	17.387985
-206.119095	1279.851685	17.387985
-206.10463	1280.822021	17.387985
-206.087418	1281.781494	17.387985
-206.067413	1282.74939	17.387985
-206.044846	1283.721069	17.387985
-206.019943	1284.689941	17.387985
-205.99263	1285.660889	17.387985
-205.962906	1286.634277	17.387985
-205.931213	1287.594482	17.387985
-205.896317	1288.573486	17.387985
-205.85997	1289.517822	17.387985
-205.81926	1290.494629	17.387985
-205.776779	1291.425537	17.387985
-205.729553	1292.357056	17.387985
-205.677734	1293.246338	17.387985
-205.662949	1293.516113	17.387985
-205.601135	1293.961792	17.387985
-205.466171	1294.822266	17.387985
-205.326797	1295.657349	17.387985
-205.158661	1296.629395	17.387985
-204.981995	1297.625	17.387985
-204.82074	1298.518066	17.387985
-204.647339	1299.465454	17.387985
-204.462891	1300.462036	17.387985
-204.273087	1301.477539	17.387985
-204.098221	1302.40564	17.387985
-203.917313	1303.359253	17.387985
-203.731033	1304.335449	17.387985
-203.539963	1305.330933	17.387985
-203.348785	1306.321777	17.387985
-203.16275	1307.281494	17.387985
-202.974121	1308.250488	17.387985
-202.783401	1309.226196	17.387985
-202.591095	1310.206177	17.387985
-202.397629	1311.188354	17.387985
-202.203278	1312.171509	17.387985
-202.008865	1313.151367	17.387985
-201.814896	1314.125732	17.387985
-201.621887	1315.092163	17.387985
-201.430313	1316.047974	17.387985
-201.227066	1317.058228	17.387985
-201.026733	1318.050537	17.387985
-200.829895	1319.021729	17.387985
-200.637238	1319.96875	17.387985
-200.443512	1320.917358	17.387985
-200.231522	1321.950073	17.387985
-200.02803	1322.936523	17.387985
-199.834045	1323.871338	17.387985
-199.646729	1324.767822	17.387985
-199.421616	1325.835693	17.387985
-199.220291	1326.779175	17.387985
-199.046219	1327.581787	17.387985
