-232.810471	1078.070923	17.387976
-232.76593	1079.042725	17.387976
-232.721161	1080.022461	17.387976
-232.676163	1081.009766	17.387976
-232.630951	1082.004395	17.387976
-232.585541	1083.006104	17.387976
-232.539917	1084.014526	17.387976
-232.494095	1085.029541	17.387976
-232.44812	1086.050659	17.387976
-232.402847	1087.057373	17.387976
-232.358688	1088.041138	17.387976
-232.314407	1089.029785	17.387976
-232.269974	1090.023071	17.387976
-232.225403	1091.02063	17.387976
-232.18071	1092.022461	17.387976
-232.13591	1093.028076	17.387976
-232.091003	1094.037231	17.387976
-232.046036	1095.049805	17.387976
-232.001404	1096.054443	17.387976
-231.957413	1097.046265	17.387976
-231.913361	1098.040649	17.387976
-231.869202	1099.037231	17.387976
-231.824997	1100.035889	17.387976
-231.780762	1101.036255	17.387976
-231.736465	1102.03833	17.387976
-231.692123	1103.041626	17.387976
-231.647736	1104.046021	17.387976
-231.603394	1105.050415	17.387976
-231.55925	1106.049683	17.387976
-231.515106	1107.049683	17.387976
-231.470978	1108.049683	17.387976
-231.426834	1109.049683	17.387976
-231.38269	1110.049561	17.387976
-231.338562	1111.04895	17.387976
-231.294495	1112.047607	17.387976
-231.250412	1113.045288	17.387976
-231.20636	1114.04187	17.387976
-231.161865	1115.048218	17.387976
-231.117325	1116.05481	17.387976
-231.072845	1117.05957	17.387976
-231.028458	1118.062256	17.387976
-230.984116	1119.0625	17.387976
-230.939835	1120.060181	17.387976
-230.895676	1121.055176	17.387976
-230.851578	1122.046875	17.387976
-230.807571	1123.0354	17.387976
-230.762695	1124.042969	17.387976
-230.717438	1125.057495	17.387976
-230.672302	1126.067749	17.387976
-230.627319	1127.073364	17.387976
-230.582458	1128.074219	17.387976
-230.53775	1129.07019	17.387976
-230.493225	1130.060547	17.387976
-230.448822	1131.045654	17.387976
-230.404617	1132.02478	17.387976
-230.358612	1133.04187	17.387976
-230.312256	1134.063599	17.387976
-230.266144	1135.078003	17.387976
-230.220245	1136.084717	17.387976
-230.174591	1137.083374	17.387976
-230.129181	1138.073608	17.387976
-230.084045	1139.055298	17.387976
-230.039154	1140.027954	17.387976
-229.993057	1141.023438	17.387976
-229.944962	1142.058472	17.387976
-229.897202	1143.081787	17.387976
-229.849823	1144.09314	17.387976
-229.802795	1145.091797	17.387976
-229.756149	1146.077759	17.387976
-229.709885	1147.050415	17.387976
-229.664032	1148.009399	17.387976
-229.61499	1149.029419	17.387976
-229.564545	1150.071899	17.387976
-229.514664	1151.095459	17.387976
-229.465363	1152.099609	17.387976
-229.416656	1153.083862	17.387976
-229.368546	1154.047729	17.387976
-229.321075	1154.990356	17.387976
-229.268005	1156.032959	17.387976
-229.213943	1157.083496	17.387976
-229.160812	1158.102295	17.387976
-229.108643	1159.088379	17.387976
-229.05751	1160.041016	17.387976
-229.007401	1160.959106	17.387976
-228.949051	1162.006226	17.387976
-228.890274	1163.035034	17.387976
-228.832092	1164.02832	17.387976
-228.77449	1164.986694	17.387976
-228.717148	1165.916992	17.387976
-228.649933	1166.975952	17.387976
-228.583679	1167.988281	17.387976
-228.518356	1168.9552	17.387976
-228.453979	1169.877808	17.387976
-228.377991	1170.929688	17.387976
-228.302902	1171.928345	17.387976
-228.22937	1172.86792	17.387976
-228.147827	1173.865845	17.387976
-228.061935	1174.867188	17.387976
-227.978622	1175.789551	17.387976
-227.881149	1176.808838	17.387976
-227.785019	1177.75061	17.387976
-227.677307	1178.732056	17.387976
-227.568787	1179.643311	17.387976
-227.441696	1180.614136	17.387976
-227.306244	1181.542358	17.387976
-227.156631	1182.467529	17.387976
-226.995407	1183.475342	17.387976
-226.854767	1184.518677	17.387976
-226.721405	1185.555908	17.387976
-226.598648	1186.521851	17.387976
-226.470871	1187.529419	17.387976
-226.345367	1188.516602	17.387976
-226.21759	1189.515381	17.387976
-226.090698	1190.499756	17.387976
-225.960587	1191.498901	17.387976
-225.831329	1192.47998	17.387976
-225.698669	1193.473145	17.387976
-225.565231	1194.457153	17.387976
-225.429764	1195.438599	17.387976
-225.290695	1196.426025	17.387976
-225.14978	1197.403198	17.387976
-225.005035	1198.380249	17.387976
-224.855621	1199.356689	17.387976
-224.703079	1200.314941	17.387976
-224.541473	1201.281494	17.387976
-224.391357	1202.121582	17.387976
-224.214218	1203.005493	17.387976
-223.99968	1203.99939	17.387976
-223.795868	1204.903687	17.387976
-223.568573	1205.884521	17.387976
-223.337265	1206.862427	17.387976
-223.11203	1207.801025	17.387976
-222.875092	1208.777832	17.387976
-222.631851	1209.772217	17.387976
-222.398651	1210.719604	17.387976
-222.159454	1211.687256	17.387976
-221.915482	1212.671265	17.387976
-221.673431	1213.64563	17.387976
-221.432709	1214.614014	17.387976
-221.19075	1215.587769	17.387976
-220.948608	1216.563721	17.387976
-220.705353	1217.546509	17.387976
-220.46373	1218.526245	17.387976
-220.225098	1219.498535	17.387976
-219.987656	1220.47168	17.387976
-219.744873	1221.474609	17.387976
-219.509018	1222.45813	17.387976
-219.281326	1223.418945	17.387976
-219.044189	1224.43457	17.387976
-218.813263	1225.442993	17.387976
-218.597382	1226.408691	17.387976
-218.372803	1227.447021	17.387976
-218.159042	1228.484131	17.387976
-217.970352	1229.466797	17.387976
-217.770798	1230.65564	17.387976
-217.645752	1231.663086	17.387976
-217.561935	1232.607422	17.387976
-217.468582	1233.815308	17.387976
-217.404587	1234.706787	17.387976
-217.336746	1235.694214	17.387978
-217.265411	1236.771118	17.387978
-217.198898	1237.805176	17.387978
-217.139191	1238.754761	17.387978
-217.078003	1239.747437	17.387978
-217.015457	1240.779907	17.387978
-216.951797	1241.848755	17.387978
-216.89502	1242.816284	17.387978
-216.838303	1243.795654	17.387978
-216.781113	1244.79541	17.387978
-216.723602	1245.813354	17.38798
-216.665894	1246.84729	17.38798
-216.610657	1247.848511	17.38798
-216.55661	1248.839233	17.38798
-216.502731	1249.838257	17.38798
-216.449081	1250.843628	17.387981
-216.395798	1251.853638	17.387981
-216.343002	1252.865845	17.387981
-216.291031	1253.873779	17.387981
-216.239746	1254.880615	17.387981
-216.189209	1255.88501	17.387981
-216.139572	1256.884644	17.387981
-216.090897	1257.878052	17.387981
-216.042068	1258.888672	17.387981
-215.993164	1259.916992	17.387981
-215.945694	1260.931885	17.387983
-215.899796	1261.931519	17.387983
-215.855576	1262.913574	17.387983
-215.812378	1263.893677	17.387983
-215.766785	1264.955688	17.387983
-215.723801	1265.986816	17.387983
-215.683624	1266.984131	17.387983
-215.646454	1267.944458	17.387983
-215.608978	1268.961182	17.387983
-215.571609	1270.045898	17.387983
-215.539841	1271.057861	17.387985
-215.513992	1271.991821	17.387985
-215.489395	1273.107422	17.387985
-215.476212	1274.181519	17.387985
-215.480576	1275.075928	17.387985
-215.488876	1276.029297	17.387985
-215.490829	1277.024658	17.387985
-215.487488	1277.997192	17.387985
-215.479645	1278.997681	17.387985
-215.468277	1279.976318	17.387985
-215.453354	1280.976196	17.387985
-215.435654	1281.962036	17.387985
-215.415176	1282.954834	17.387985
-215.392044	1283.949951	17.387985
-215.366562	1284.941406	17.387985
-215.338608	1285.934937	17.387985
-215.308197	1286.931152	17.387985
-215.275711	1287.914795	17.387985
-215.239929	1288.919434	17.387985
-215.202515	1289.891479	17.387985
-215.160385	1290.901733	17.387985
-215.116074	1291.872803	17.387985
-215.065994	1292.860474	17.387985
-215.008789	1293.840942	17.387985
-214.959824	1294.511353	17.387985
-214.84993	1295.333618	17.387985
-214.694305	1296.326904	17.387985
-214.544312	1297.22583	17.387985
-214.367996	1298.245117	17.387985
-214.185333	1299.274658	17.387985
-214.019882	1300.190796	17.387985
-213.842834	1301.158203	17.387985
-213.655167	1302.172119	17.387985
-213.462555	1303.202637	17.387985
-213.285477	1304.142578	17.387985
-213.102509	1305.107056	17.387985
-212.914337	1306.09314	17.387985
-212.721481	1307.0979	17.387985
-212.528671	1308.097168	17.387985
-212.341171	1309.064575	17.387985
-212.151123	1310.040771	17.387985
-211.959061	1311.023438	17.387985
-211.765457	1312.01001	17.387985
-211.57074	1312.998535	17.387985
-211.375153	1313.987915	17.387985
-211.17952	1314.973877	17.387985
-210.984344	1315.954346	17.387985
-210.790131	1316.926636	17.387985
-210.597351	1317.88855	17.387985
-210.392807	1318.905273	17.387985
-210.191147	1319.904175	17.387985
-209.99295	1320.882202	17.387985
-209.798843	1321.836182	17.387985
-209.603546	1322.79248	17.387985
-209.389664	1323.834717	17.387985
-209.184097	1324.831055	17.387985
-208.987762	1325.776978	17.387985
-208.797729	1326.686523	17.387985
-208.568314	1327.775024	17.387985
-208.361389	1328.744507	17.387985
-208.179581	1329.582886	17.387985
