-229.114349	1077.901245	17.387976
-229.069794	1078.873535	17.387976
-229.025009	1079.85376	17.387976
-228.979996	1080.841675	17.387976
-228.934753	1081.83667	17.387976
-228.889328	1082.838745	17.387976
-228.843689	1083.847534	17.387976
-228.797867	1084.862793	17.387976
-228.751846	1085.884277	17.387976
-228.706573	1086.891357	17.387976
-228.662399	1087.875366	17.387976
-228.618103	1088.86438	17.387976
-228.573669	1089.85791	17.387976
-228.529099	1090.855713	17.387976
-228.48439	1091.857666	17.387976
-228.43959	1092.863525	17.387976
-228.394669	1093.872925	17.387976
-228.34967	1094.88562	17.387976
-228.305054	1095.890503	17.387976
-228.261047	1096.882446	17.387976
-228.216965	1097.876953	17.387976
-228.172821	1098.873535	17.387976
-228.128601	1099.872314	17.387976
-228.084366	1100.872803	17.387976
-228.04007	1101.874878	17.387976
-227.995712	1102.878296	17.387976
-227.95134	1103.882813	17.387976
-227.907013	1104.887207	17.387976
-227.862869	1105.886597	17.387976
-227.818726	1106.886597	17.387976
-227.774582	1107.886597	17.387976
-227.730438	1108.886597	17.387976
-227.68631	1109.886353	17.387976
-227.642181	1110.885742	17.387976
-227.598083	1111.884277	17.387976
-227.554001	1112.881958	17.387976
-227.509979	1113.878418	17.387976
-227.465485	1114.884766	17.387976
-227.420929	1115.891357	17.387976
-227.37648	1116.895874	17.387976
-227.332062	1117.898438	17.387976
-227.28775	1118.898682	17.387976
-227.243484	1119.896118	17.387976
-227.19931	1120.890869	17.387976
-227.155228	1121.882446	17.387976
-227.111252	1122.870972	17.387976
-227.06636	1123.878174	17.387976
-227.021133	1124.892456	17.387976
-226.975998	1125.902466	17.387976
-226.931015	1126.907837	17.387976
-226.886169	1127.908447	17.387976
-226.841476	1128.904175	17.387976
-226.796951	1129.894287	17.387976
-226.752594	1130.878906	17.387976
-226.708389	1131.857666	17.387976
-226.662399	1132.87439	17.387976
-226.616074	1133.895752	17.387976
-226.569977	1134.90979	17.387976
-226.524094	1135.915894	17.387976
-226.478455	1136.914063	17.387976
-226.433075	1137.903931	17.387976
-226.387939	1138.88501	17.387976
-226.343094	1139.857178	17.387976
-226.297043	1140.851929	17.387976
-226.248962	1141.886353	17.387976
-226.201248	1142.908936	17.387976
-226.153885	1143.919434	17.387976
-226.106888	1144.91748	17.387976
-226.060287	1145.902466	17.387976
-226.014084	1146.874146	17.387976
-225.968277	1147.832275	17.387976
-225.919296	1148.851196	17.387976
-225.868896	1149.892334	17.387976
-225.819077	1150.914673	17.387976
-225.769836	1151.917603	17.387976
-225.721207	1152.900269	17.387976
-225.673172	1153.862427	17.387976
-225.625793	1154.803467	17.387976
-225.572845	1155.843872	17.387976
-225.518875	1156.891968	17.387976
-225.465897	1157.908203	17.387976
-225.413895	1158.891602	17.387976
-225.36293	1159.841064	17.387976
-225.312988	1160.755737	17.387976
-225.254913	1161.797729	17.387976
-225.196442	1162.821411	17.387976
-225.138565	1163.809204	17.387976
-225.081329	1164.761963	17.387976
-225.024338	1165.686279	17.387976
-224.957596	1166.738037	17.387976
-224.89183	1167.74292	17.387976
-224.827042	1168.701904	17.387976
-224.763245	1169.616211	17.387976
-224.687988	1170.657593	17.387976
-224.613739	1171.645386	17.387976
-224.541107	1172.573364	17.387976
-224.460724	1173.557373	17.387976
-224.37619	1174.542725	17.387976
-224.294434	1175.447998	17.387976
-224.199051	1176.445068	17.387976
-224.105469	1177.362183	17.387976
-224.001205	1178.312134	17.387976
-223.897049	1179.186768	17.387976
-223.776459	1180.108276	17.387976
-223.649475	1180.978394	17.387976
-223.507278	1181.857422	17.387976
-223.332901	1182.949829	17.387976
-223.18573	1184.040894	17.387976
-223.051102	1185.088013	17.387976
-222.92804	1186.056396	17.387976
-222.800323	1187.063599	17.387976
-222.675079	1188.048706	17.387976
-222.547714	1189.044312	17.387976
-222.421341	1190.024414	17.387976
-222.291916	1191.018433	17.387976
-222.163406	1191.99353	17.387976
-222.031708	1192.979858	17.387976
-221.899353	1193.955811	17.387976
-221.765167	1194.927979	17.387976
-221.627655	1195.904297	17.387976
-221.488632	1196.86853	17.387976
-221.346207	1197.829956	17.387976
-221.199768	1198.786865	17.387976
-221.051147	1199.720581	17.387976
-220.895126	1200.653687	17.387976
-220.756104	1201.432373	17.387976
-220.592575	1202.248047	17.387976
-220.387238	1203.199219	17.387976
-220.189072	1204.078491	17.387976
-219.966187	1205.040161	17.387976
-219.738159	1206.004272	17.387976
-219.51532	1206.932861	17.387976
-219.280289	1207.901733	17.387976
-219.038528	1208.890137	17.387976
-218.806366	1209.833374	17.387976
-218.567932	1210.797852	17.387976
-218.324463	1211.779785	17.387976
-218.082672	1212.753296	17.387976
-217.841965	1213.721436	17.387976
-217.599823	1214.696045	17.387976
-217.357285	1215.673584	17.387976
-217.113388	1216.658936	17.387976
-216.870911	1217.642212	17.387976
-216.63118	1218.618774	17.387976
-216.39238	1219.597656	17.387976
-216.147873	1220.607666	17.387976
-215.909912	1221.599854	17.387976
-215.679779	1222.571167	17.387976
-215.439453	1223.600342	17.387976
-215.20462	1224.625854	17.387976
-214.984055	1225.612427	17.387976
-214.753082	1226.680542	17.387976
-214.530731	1227.759155	17.387976
-214.330872	1228.800415	17.387976
-214.111145	1230.110718	17.387976
-213.963593	1231.300415	17.387976
-213.874313	1232.304932	17.387976
-213.778564	1233.543579	17.387976
-213.713654	1234.447998	17.387976
-213.645126	1235.445313	17.387978
-213.573257	1236.530396	17.387978
-213.506348	1237.570557	17.387978
-213.44635	1238.52478	17.387978
-213.384872	1239.521729	17.387978
-213.322098	1240.558105	17.387978
-213.25824	1241.630493	17.387978
-213.201279	1242.600952	17.387978
-213.144409	1243.583008	17.387978
-213.087067	1244.585449	17.387978
-213.029434	1245.605957	17.38798
-212.971573	1246.642334	17.38798
-212.916229	1247.645874	17.38798
-212.862045	1248.638794	17.38798
-212.808044	1249.640015	17.38798
-212.754272	1250.647583	17.387981
-212.700867	1251.65979	17.387981
-212.647964	1252.674316	17.387981
-212.595886	1253.684326	17.387981
-212.544495	1254.693604	17.387981
-212.493835	1255.700317	17.387981
-212.444061	1256.702271	17.387981
-212.395264	1257.698242	17.387981
-212.346329	1258.711548	17.387981
-212.297287	1259.742676	17.387981
-212.249664	1260.76062	17.387983
-212.203613	1261.763428	17.387983
-212.159256	1262.748779	17.387983
-212.115891	1263.732666	17.387983
-212.070099	1264.799194	17.387983
-212.026917	1265.835327	17.387983
-211.986511	1266.838013	17.387983
-211.949097	1267.804443	17.387983
-211.911346	1268.828979	17.387983
-211.873627	1269.923828	17.387983
-211.841461	1270.94812	17.387985
-211.815216	1271.897583	17.387985
-211.789993	1273.040771	17.387985
-211.77626	1274.162964	17.387985
-211.780899	1275.122803	17.387985
-211.78894	1276.048096	17.387985
-211.790833	1277.021118	17.387985
-211.787552	1277.975952	17.387985
-211.779816	1278.961182	17.387985
-211.768616	1279.927002	17.387985
-211.75386	1280.915161	17.387985
-211.736359	1281.890625	17.387985
-211.716049	1282.873535	17.387985
-211.693161	1283.859375	17.387985
-211.667892	1284.841919	17.387985
-211.640213	1285.826538	17.387985
-211.610046	1286.813721	17.387985
-211.577881	1287.787964	17.387985
-211.54245	1288.782471	17.387985
-211.505463	1289.743652	17.387985
-211.463882	1290.740601	17.387985
-211.420303	1291.695801	17.387985
-211.371338	1292.661255	17.387985
-211.316284	1293.605713	17.387985
-211.280853	1294.117554	17.387985
-211.190002	1294.790771	17.387985
-211.042542	1295.731567	17.387985
-210.896759	1296.605103	17.387985
-210.723663	1297.605713	17.387985
-210.54335	1298.621826	17.387985
-210.379578	1299.528931	17.387985
-210.203964	1300.488403	17.387985
-210.017578	1301.495361	17.387985
-209.826096	1302.52002	17.387985
-209.649872	1303.4552	17.387985
-209.467728	1304.415405	17.387985
-209.280289	1305.397583	17.387985
-209.088135	1306.398682	17.387985
-208.895996	1307.394531	17.387985
-208.709076	1308.359009	17.387985
-208.519592	1309.332275	17.387985
-208.328049	1310.312134	17.387985
-208.134949	1311.296265	17.387985
-207.940735	1312.282104	17.387985
-207.745636	1313.269165	17.387985
-207.550476	1314.252808	17.387985
-207.355789	1315.230713	17.387985
-207.162064	1316.200806	17.387985
-206.969742	1317.160156	17.387985
-206.765717	1318.174316	17.387985
-206.56459	1319.170776	17.387985
-206.366928	1320.145874	17.387985
-206.173401	1321.09729	17.387985
-205.978729	1322.050415	17.387985
-205.765579	1323.088867	17.387985
-205.560837	1324.081421	17.387985
-205.365448	1325.022949	17.387985
-205.176483	1325.927368	17.387985
-204.948761	1327.007568	17.387985
-204.744064	1327.966797	17.387985
-204.565308	1328.791016	17.387985
