-51.760693	337.339355	5.194787
-51.276699	337.351624	5.194787
-50.788406	337.364014	5.194787
-50.295967	337.376526	5.194787
-49.79953	337.389099	5.194787
-49.299244	337.401794	5.194787
-48.795246	337.414551	5.194787
-48.287693	337.42746	5.194787
-47.776737	337.44043	5.194787
-47.26252	337.45343	5.194787
-46.77211	337.465881	5.194787
-46.279682	337.478394	5.194787
-45.784718	337.490936	5.194787
-45.287334	337.50354	5.194787
-44.787666	337.516235	5.194787
-44.285828	337.528992	5.194787
-43.781956	337.541748	5.194787
-43.276173	337.554596	5.194787
-42.768597	337.567505	5.194787
-42.266064	337.580231	5.194787
-41.77039	337.592804	5.194787
-41.273376	337.605408	5.194787
-40.775143	337.618073	5.194787
-40.275806	337.630737	5.194787
-39.775478	337.643433	5.194787
-39.274273	337.656158	5.194787
-38.772308	337.668884	5.194787
-38.269691	337.681671	5.194787
-37.766548	337.694397	5.194787
-37.265285	337.707153	5.194787
-36.76511	337.719849	5.194787
-36.264744	337.732544	5.194787
-35.764305	337.745239	5.194787
-35.263893	337.757965	5.194787
-34.763641	337.77066	5.194787
-34.263645	337.783356	5.194787
-33.764019	337.796021	5.194787
-33.264885	337.808655	5.194787
-32.766346	337.82132	5.194787
-32.263096	337.834106	5.194787
-31.758724	337.846893	5.194787
-31.255314	337.85968	5.194787
-30.752991	337.872467	5.194787
-30.251865	337.885162	5.194787
-29.752052	337.897858	5.194787
-29.253675	337.910492	5.194787
-28.756853	337.923065	5.194787
-28.261696	337.935669	5.194787
-27.76832	337.948181	5.194787
-27.258192	337.961121	5.194787
-26.749987	337.97403	5.194787
-26.244106	337.986877	5.194787
-25.740669	337.999634	5.194787
-25.239803	338.012329	5.194787
-24.741648	338.024963	5.194787
-24.246334	338.037537	5.194787
-23.753988	338.050018	5.194787
-23.264738	338.062439	5.194787
-22.759586	338.075256	5.194787
-22.24548	338.088287	5.194787
-21.735353	338.101257	5.194787
-21.229366	338.114044	5.194787
-20.727695	338.126801	5.194787
-20.23048	338.139374	5.194787
-19.737885	338.151855	5.194787
-19.250078	338.164246	5.194787
-18.767199	338.176483	5.194787
-18.251909	338.189514	5.194787
-17.733183	338.202698	5.194787
-17.221046	338.215668	5.194787
-16.715708	338.228455	5.194787
-16.217358	338.241089	5.194787
-15.726223	338.25354	5.194787
-15.242519	338.265778	5.194787
-14.76645	338.277832	5.194787
-14.245546	338.291016	5.194787
-13.720493	338.304321	5.194787
-13.206347	338.317322	5.194787
-12.703435	338.330017	5.194787
-12.212058	338.342499	5.194787
-11.732539	338.354614	5.194787
-11.265193	338.366394	5.194787
-10.735195	338.379791	5.194787
-10.203198	338.39325	5.194787
-9.690708	338.406158	5.194787
-9.198277	338.41864	5.194787
-8.726484	338.430511	5.194787
-8.273389	338.441895	5.194787
-7.725683	338.455688	5.194787
-7.206172	338.468781	5.194787
-6.714121	338.48114	5.194787
-6.248774	338.492798	5.194787
-5.744502	338.505432	5.194787
-5.215586	338.518677	5.194787
-4.727505	338.530823	5.194787
-4.27272	338.542145	5.194787
-3.725361	338.555695	5.194787
-3.2427	338.567596	5.194787
-2.741738	338.579865	5.194787
-2.251475	338.591797	5.194787
-1.742715	338.603943	5.194787
-1.259077	338.61499	5.194787
-0.836289	338.61969	5.194787
-0.327563	338.623383	5.194787
0.211816	338.627228	5.194787
0.686558	338.630554	5.194787
1.217451	338.634277	5.194787
1.702368	338.637726	5.194787
2.204468	338.641327	5.194787
2.721001	338.64502	5.194787
3.214316	338.648621	5.194787
3.716777	338.652344	5.194787
4.223594	338.656158	5.194787
4.727461	338.660004	5.194787
5.228169	338.663849	5.194787
5.725659	338.667816	5.194787
6.240918	338.671997	5.194787
6.738403	338.676117	5.194787
7.235952	338.68045	5.194787
7.756211	338.685181	5.194787
8.230068	338.689789	5.194787
8.770103	338.695526	5.194787
9.246884	338.70163	5.194787
9.694638	338.711121	5.194787
10.19749	338.714752	5.194787
10.707373	338.71405	5.194787
11.221123	338.711945	5.194787
11.71227	338.709259	5.194787
12.220376	338.706085	5.194787
12.720054	338.70282	5.194787
13.224926	338.699402	5.194787
13.725278	338.696075	5.194787
14.232593	338.692932	5.194787
14.723578	338.690186	5.194787
15.239092	338.687988	5.194787
15.747373	338.687195	5.194787
16.254198	338.690216	5.194787
16.711805	338.71994	5.194787
17.210922	338.773499	5.194787
17.711157	338.832642	5.194787
18.2106	338.893951	5.194787
18.70998	338.955811	5.194787
19.209209	339.017029	5.194787
19.705482	339.075195	5.194787
20.213861	339.124054	5.194787
20.671753	339.207092	5.194787
21.156786	339.349396	5.194787
21.636919	339.502441	5.194787
22.116064	339.661194	5.194787
22.593027	339.822968	5.194787
23.065893	339.985809	5.194787
23.542246	340.151703	5.194787
24.019072	340.318848	5.194787
24.493305	340.485352	5.194787
24.942411	340.63916	5.194787
25.43185	340.789948	5.194787
25.909681	340.929047	5.194787
26.392694	341.063751	5.194787
26.878031	341.19281	5.194787
27.365604	341.314758	5.194787
27.856527	341.426331	5.194787
28.348545	341.517639	5.194787
28.824848	341.553223	5.194787
29.336401	341.592896	5.194787
29.832664	341.644165	5.194787
30.330967	341.701233	5.194787
30.828213	341.761627	5.194787
31.324482	341.824249	5.194787
31.821289	341.888733	5.194787
32.31665	341.954437	5.194787
32.825916	342.023132	5.194787
33.300388	342.073273	5.194787
33.799278	342.105408	5.194787
34.303699	342.132263	5.194787
34.804062	342.156128	5.194787
35.304005	342.178345	5.194787
35.807587	342.199768	5.194787
36.309364	342.220551	5.194787
36.805935	342.240967	5.194787
37.305008	342.261993	5.194787
37.818729	342.28598	5.194787
38.295605	342.316162	5.194787
38.790955	342.345917	5.194787
39.28323	342.374634	5.194787
39.790947	342.403809	5.194787
40.293594	342.432465	5.194787
40.794285	342.460785	5.194787
41.296944	342.489105	5.194787
41.800144	342.517303	5.194787
42.298916	342.545135	5.194787
42.804695	342.573273	5.194787
43.309765	342.601257	5.194787
43.795643	342.627991	5.194787
44.298973	342.655548	5.194787
44.754082	342.679718	5.194787
45.261631	342.705994	5.194787
45.774158	342.732544	5.194787
46.280525	342.758728	5.194787
46.776688	342.784393	5.194787
47.285927	342.81076	5.194787
47.783562	342.836548	5.194787
48.286415	342.862579	5.194787
48.790485	342.888672	5.194787
49.287685	342.914398	5.194787
49.79752	342.940765	5.194787
50.286823	342.966125	5.194787
50.804913	342.99295	5.194787
51.304432	343.018768	5.194787
51.79739	343.044281	5.194787
52.267273	343.068573	5.194787
52.778828	343.095001	5.194787
53.280125	343.12085	5.194787
53.776882	343.146423	5.194787
54.277439	343.172272	5.194787
54.780781	343.198181	5.194787
55.283073	343.224121	5.194787
55.782383	343.249847	5.194787
56.283504	343.275696	5.194787
56.796249	343.302185	5.194787
57.269394	343.326599	5.194787
57.756435	343.351746	5.194787
58.251122	343.377289	5.194787
58.771973	343.404205	5.194787
59.258915	343.429382	5.194787
59.771679	343.455841	5.194787
60.266602	343.481384	5.194787
60.769775	343.507416	5.194787
61.273983	343.533478	5.194787
61.772068	343.559174	5.194787
62.280468	343.585449	5.194787
62.776104	343.611053	5.194787
63.288612	343.637482	5.194787
63.770046	343.662384	5.194787
64.291924	343.689331	5.194787
64.776871	343.714355	5.194787
65.245659	343.768616	5.194979
65.744804	343.845215	5.195274
66.242569	343.927368	5.195566
66.740227	344.012726	5.195831
67.234879	344.099762	5.196052
67.728386	344.188354	5.196208
68.225212	344.279175	5.196271
68.721794	344.371582	5.196178
69.214783	344.465698	5.19576
69.671112	344.562103	5.193965
70.172127	344.694275	5.190581
70.654861	344.827026	5.187306
71.135109	344.961609	5.184043
71.616814	345.098358	5.180765
72.101158	345.23764	5.177465
72.585243	345.378784	5.174162
73.067909	345.522095	5.170862
73.551727	345.670349	5.167543
73.985962	345.820038	5.164524
74.449844	346.013	5.161218
74.915421	346.20816	5.157896
75.384537	346.405823	5.154547
75.849236	346.602661	5.151227
76.309181	346.798523	5.147938
76.772995	346.997284	5.144619
77.233337	347.196136	5.14132
77.698074	347.398895	5.137985
78.1521	347.599823	5.13472
78.607925	347.806152	5.131431
79.060616	348.021362	5.128139
79.451935	348.273071	5.125133
79.846153	348.600342	5.121923
80.225868	348.918701	5.118824
80.613853	349.245392	5.115654
81.001465	349.572479	5.112486
81.382423	349.894653	5.10937
81.767456	350.220764	5.10622
82.150749	350.545837	5.103083
82.535591	350.872742	5.099932
82.913025	351.193909	5.09684
83.303741	351.526978	5.093638
83.689774	351.8573	5.090471
84.060829	352.178223	5.087419
84.370552	352.547546	5.084622
84.654549	352.955292	5.081889
84.928764	353.377258	5.079181
85.191681	353.80426	5.07653
85.444801	354.241821	5.073912
85.67292	354.687134	5.071428
85.821617	355.149689	5.069388
85.953407	355.63623	5.067392
86.076973	356.122833	5.065447
86.191635	356.611633	5.063551
86.292587	357.104889	5.061727
86.358521	357.603577	5.060104
86.351494	357.956909	5.059283
86.333878	358.55246	5.057934
86.320724	358.988586	5.056949
86.305252	359.49823	5.055797
86.287605	360.0755	5.054492
86.273125	360.548492	5.053424
86.258682	361.019409	5.052361
86.243423	361.516479	5.051239
86.227402	362.03772	5.050062
86.210678	362.581177	5.048835
86.195633	363.069763	5.047732
86.180832	363.551544	5.046645
86.165634	364.045044	5.045531
86.150108	364.549133	5.044393
86.134308	365.062653	5.043233
86.118248	365.584442	5.042055
86.102905	366.08374	5.040928
86.087746	366.577271	5.039814
86.072456	367.075073	5.03869
86.057076	367.576233	5.037558
86.041618	368.079987	5.036421
86.026123	368.585236	5.03528
86.010635	369.091217	5.034137
85.995163	369.597382	5.032994
85.979736	370.102448	5.031853
85.964394	370.605408	5.030717
85.949158	371.10553	5.029587
85.934052	371.601837	5.028465
85.919136	372.093323	5.027355
85.903664	372.604431	5.026199
85.887947	373.123901	5.025025
85.872559	373.63443	5.02387
85.857498	374.134918	5.022738
85.842842	374.624207	5.021632
85.828598	375.101166	5.020552
85.813217	375.617737	5.019383
85.797371	376.15387	5.018169
85.782303	376.666504	5.017007
85.768074	377.153748	5.015903
85.754784	377.613342	5.01486
85.739616	378.14386	5.013655
85.724159	378.695496	5.012401
85.71109	379.174835	5.011308
85.699753	379.61084	5.010311
85.687111	380.197693	5.008953
85.701271	380.572571	5.00795
85.726929	381.075928	5.006562
85.754189	381.579437	5.005164
85.782959	382.081482	5.00376
85.813721	382.583618	5.002344
85.847275	383.085602	5.000911
85.885399	383.584106	4.999458
85.938622	384.093689	4.997887
86.04026	384.556702	4.996133
86.15686	385.049591	4.994215
86.274178	385.53653	4.992308
86.393898	386.025238	4.990381
86.516022	386.513275	4.988441
86.640381	386.992737	4.98651
86.781105	387.459137	4.984509
86.991508	387.918121	4.9821
87.212097	388.373596	4.979639
87.435356	388.822998	4.977176
87.663742	389.271698	4.974683
87.895905	389.711548	4.972188
88.153885	390.129486	4.96959
88.49485	390.502594	4.966594
88.843658	390.861969	4.963583
89.193153	391.221802	4.960567
89.533447	391.591949	4.957582
89.912979	391.895935	4.954519
90.373436	392.097107	4.951213
90.845421	392.265289	4.947917
91.327827	392.411682	4.944611
91.802292	392.512482	4.941465
92.299568	392.584442	4.938251
92.799347	392.665619	4.934999
93.29422	392.747345	4.931776
93.788429	392.827881	4.928559
94.289001	392.904297	4.925314
94.543282	392.930878	4.923695
94.762253	392.938507	4.922338
95.164688	392.952087	4.919846
95.743179	392.971405	4.916264
96.490341	392.996155	4.911638
97.241249	393.020966	4.906989
97.615036	393.033325	4.904674
98.010605	393.046356	4.902225
98.427353	393.060059	4.899645
98.865097	393.074493	4.896935
99.323387	393.089569	4.894098
99.801636	393.105316	4.891137
100.299736	393.121674	4.888053
100.817032	393.138672	4.884851
101.353371	393.15625	4.88153
101.908073	393.174438	4.878096
102.481094	393.193268	4.874548
103.071846	393.212646	4.870891
103.679771	393.232574	4.867127
104.25724	393.251526	4.863553
104.691841	393.265778	4.860862
105.134018	393.280212	4.858125
105.583832	393.294983	4.85534
106.040787	393.309967	4.852511
106.504936	393.325134	4.849638
106.976372	393.340576	4.846719
107.454575	393.356232	4.843759
107.939774	393.372131	4.840755
108.43148	393.388245	4.837711
108.929733	393.404572	4.834626
109.434715	393.421082	4.831501
109.945732	393.437805	4.828337
110.463013	393.454742	4.825134
110.986549	393.471863	4.821894
111.515839	393.489197	4.818617
112.050926	393.506683	4.815304
112.591957	393.524353	4.811955
113.138329	393.542267	4.808573
113.690102	393.560303	4.805157
114.24749	393.578552	4.801706
114.744209	393.594788	4.798631
115.211685	393.610077	4.795737
115.682335	393.625458	4.792824
116.156334	393.640961	4.789889
116.633545	393.656555	4.786935
117.114151	393.672302	4.78396
117.597626	393.68811	4.780967
118.084167	393.703979	4.777955
118.573677	393.720001	4.774924
119.066078	393.736084	4.771876
119.561546	393.752289	4.768809
120.05954	393.768585	4.765726
120.560204	393.784943	4.762627
121.063522	393.801392	4.759511
121.569595	393.817963	4.756378
122.077934	393.834564	4.753232
122.588676	393.851227	4.75007
123.101707	393.868011	4.746893
123.617035	393.884888	4.743703
124.134811	393.901794	4.740498
124.654457	393.918793	4.737281
125.176163	393.935822	4.734051
125.699829	393.952911	4.73081
126.225693	393.970123	4.727554
126.753151	393.987335	4.724289
127.251587	394.003632	4.721203
127.739677	394.019592	4.718182
128.229141	394.035583	4.715152
128.719986	394.051636	4.712113
129.212036	394.067719	4.709067
129.705353	394.083832	4.706013
130.199844	394.100006	4.702952
130.695435	394.11615	4.699884
131.192078	394.132416	4.69681
131.689728	394.148651	4.693729
132.18837	394.164948	4.690642
132.687897	394.181244	4.68755
133.188232	394.197601	4.684453
133.689377	394.213989	4.68135
134.191254	394.230377	4.678243
134.693817	394.246796	4.675132
135.196976	394.263275	4.672017
135.700714	394.279694	4.668899
136.204987	394.296173	4.665777
136.709702	394.312653	4.662653
137.214828	394.329132	4.659526
137.720306	394.345703	4.656397
138.226059	394.362183	4.653266
138.732071	394.378754	4.650133
139.238281	394.395264	4.647
139.744598	394.411774	4.643865
140.251022	394.428345	4.64073
140.757431	394.444916	4.637596
141.263809	394.461426	4.63446
141.770111	394.477966	4.631326
142.276291	394.494537	4.628193
142.782257	394.511047	4.625061
143.287933	394.527557	4.62193
143.793365	394.544067	4.618801
144.298386	394.560577	4.615675
144.80304	394.577057	4.612551
145.30719	394.593506	4.60943
145.810822	394.609985	4.606312
146.313873	394.626404	4.603198
146.816299	394.642853	4.600088
147.318054	394.65921	4.596982
147.819016	394.675629	4.593881
148.319229	394.691956	4.590784
148.818558	394.708221	4.587693
149.317001	394.724518	4.584607
149.814438	394.740784	4.581528
150.310898	394.757019	4.578454
150.806274	394.773193	4.575388
151.300537	394.789368	4.572328
151.793594	394.80545	4.569276
152.285431	394.821503	4.566231
152.775986	394.837524	4.563194
153.265198	394.853516	4.560165
153.75296	394.869476	4.557146
154.259659	394.886017	4.554009
154.786758	394.903259	4.550746
155.31221	394.920471	4.547493
155.83551	394.937531	4.544254
156.356827	394.95459	4.541027
156.876068	394.971558	4.537813
157.393372	394.988434	4.53461
157.908295	395.00531	4.531423
158.420853	395.022034	4.528249
158.931107	395.038696	4.525091
159.439163	395.055298	4.521945
159.944534	395.071838	4.518817
160.447266	395.088287	4.515705
160.947433	395.104614	4.512609
161.444885	395.12085	4.509529
161.939789	395.137024	4.506465
162.43161	395.153107	4.50342
162.920532	395.169128	4.500393
163.406464	395.184998	4.497386
163.889603	395.200775	4.494395
164.36937	395.216461	4.491425
164.845932	395.232056	4.488475
165.319214	395.247528	4.485545
165.789413	395.262909	4.482634
166.255936	395.278198	4.479745
166.771713	395.295074	4.476552
167.327774	395.313232	4.47311
167.878708	395.331238	4.469699
168.423981	395.349091	4.466324
168.963669	395.366791	4.462983
169.497803	395.384216	4.459676
170.02594	395.401489	4.456407
170.54805	395.418579	4.453175
171.064255	395.435486	4.449979
171.574066	395.452179	4.446823
172.07753	395.468658	4.443706
172.574677	395.484924	4.440629
173.065079	395.500977	4.437593
173.548706	395.516785	4.434598
174.025696	395.53244	4.431646
174.495544	395.547852	4.428737
174.958282	395.562988	4.425872
175.413986	395.577911	4.423051
175.862106	395.59256	4.420277
176.302811	395.607025	4.417549
176.736053	395.621246	4.414867
177.350464	395.641388	4.411063
177.95491	395.661194	4.407321
178.542145	395.68045	4.403686
179.111435	395.699127	4.400161
179.662567	395.717255	4.396749
180.19519	395.734711	4.393451
180.708633	395.751587	4.390273
181.202805	395.767853	4.387214
181.677063	395.783417	4.384277
182.131287	395.79834	4.381465
182.56488	395.812653	4.378781
182.977371	395.826233	4.376227
183.368622	395.839142	4.373805
183.738037	395.851318	4.371518
184.579529	395.87912	4.366307
185.293472	395.902832	4.361887
185.837341	395.921021	4.358519
186.203583	395.933441	4.356251
186.384918	395.93985	4.355127
186.716675	395.935394	4.35311
187.225189	395.909363	4.350066
187.724686	395.878754	4.347088
188.226944	395.845703	4.3441
188.728745	395.811157	4.341117
189.226013	395.77594	4.338164
189.706253	395.740875	4.335314
190.210266	395.694244	4.332348
190.712646	395.64389	4.329402
191.213196	395.590607	4.326474
191.710968	395.533813	4.323572
192.211716	395.470886	4.320666
192.711319	395.394989	4.317799
193.169174	395.251709	4.315352
193.639725	395.066406	4.312931
194.106796	394.882324	4.310528
194.5746	394.697906	4.308122
195.041397	394.513824	4.305721
195.490311	394.33374	4.303419
195.945145	394.112732	4.30118
196.396835	393.884521	4.298977
196.843277	393.655548	4.29681
197.289368	393.42395	4.29465
197.735977	393.188202	4.292498
198.154449	392.942322	4.290542
198.563629	392.650543	4.288757
198.967026	392.349243	4.287029
199.362885	392.040955	4.285365
199.743668	391.712891	4.283842
200.104996	391.38385	4.282439
200.491364	391.057953	4.280876
200.875778	390.735931	4.279316
201.256943	390.412537	4.277779
201.632385	390.076996	4.276307
201.938431	389.70578	4.275345
202.242142	389.296722	4.274489
202.540939	388.89093	4.273656
202.836166	388.487183	4.27284
203.130386	388.081635	4.272034
203.424286	387.671906	4.27124
203.7155	387.256165	4.270478
203.957138	386.836487	4.270028
204.140228	386.378662	4.270029
204.317612	385.905609	4.270102
204.488983	385.433105	4.270211
204.655426	384.960938	4.270349
204.818161	384.484253	4.270521
204.974442	384.001373	4.270747
205.090073	383.548431	4.271148
205.176514	383.036041	4.271873
205.255188	382.541931	4.272601
205.331436	382.051392	4.273335
205.407303	381.555298	4.274085
205.482422	381.056641	4.274846
205.556168	380.560486	4.275609
205.628235	380.068115	4.276372
205.699646	379.569519	4.277155
205.768005	379.071289	4.277957
205.803818	378.708221	4.278625
205.825699	378.084686	4.280017
205.837997	377.673004	4.280949
205.851746	377.185394	4.282058
205.866837	376.627808	4.283329
205.880264	376.114441	4.284503
205.892227	375.650269	4.285565
205.904724	375.158905	4.286691
205.917648	374.642731	4.287875
205.931015	374.103424	4.289112
205.943314	373.60141	4.290265
205.955002	373.121399	4.291368
205.966827	372.629211	4.292499
205.978897	372.126038	4.293656
205.991135	371.61319	4.294836
206.003479	371.091858	4.296036
206.015305	370.590973	4.297189
206.026917	370.097443	4.298325
206.038544	369.599609	4.299471
206.050232	369.098358	4.300626
206.061951	368.594391	4.301787
206.073624	368.088989	4.302952
206.085342	367.582794	4.304119
206.096985	367.076874	4.305285
206.108551	366.572021	4.306449
206.120071	366.069336	4.307609
206.131485	365.569672	4.308761
206.142761	365.073975	4.309905
206.153946	364.583191	4.311037
206.165665	364.064758	4.312233
206.177383	363.547729	4.313426
206.188858	363.039764	4.314599
206.200027	362.542114	4.315748
206.210968	362.056	4.31687
206.221603	361.582581	4.317963
206.233749	361.042114	4.319211
206.245499	360.514526	4.32043
206.25676	360.010895	4.321593
206.26738	359.533142	4.322696
206.277374	359.083588	4.323735
206.290268	358.502594	4.325078
206.301834	357.980133	4.326285
206.311752	357.530579	4.327324
206.324142	356.967499	4.328625
206.332581	356.58139	4.329518
206.379532	356.091705	4.330429
206.466171	355.597321	4.331109
206.577881	355.109589	4.331619
206.720581	354.630707	4.331918
206.943039	354.191803	4.331632
207.203156	353.767212	4.331082
207.464371	353.334747	4.330544
207.723511	352.904144	4.330016
207.982376	352.473938	4.329487
208.243713	352.041168	4.328949
208.500732	351.621002	4.328407
208.769882	351.21051	4.327767
209.050705	350.789276	4.327081
209.328903	350.372009	4.326402
209.607498	349.954285	4.325721
209.8871	349.534943	4.325038
210.162415	349.122009	4.324366
210.434326	348.716003	4.323698
210.718323	348.294373	4.322994
210.998047	347.879517	4.3223
211.279251	347.462463	4.321603
211.559601	347.046631	4.320908
211.84198	346.627411	4.320208
212.113388	346.229401	4.319523
212.420929	345.83194	4.318616
212.735901	345.436157	4.31766
213.049728	345.044525	4.316701
213.36441	344.651489	4.31574
213.675964	344.258789	4.314796
213.978043	343.860535	4.313925
214.263077	343.460632	4.313162
214.560547	343.058899	4.312328
214.863785	342.657013	4.31146
215.170425	342.258514	4.310562
215.483749	341.863403	4.309615
215.81218	341.486053	4.308532
216.155731	341.134277	4.307293
216.492844	340.762909	4.306142
216.854294	340.415955	4.304783
217.28273	340.169983	4.302766
217.731201	339.943115	4.30058
218.188904	339.733978	4.298294
218.658279	339.564148	4.295841
219.140579	339.543671	4.292944
219.651794	339.547272	4.289812
220.153549	339.550781	4.286737
220.654129	339.554291	4.28367
221.15538	339.55777	4.2806
221.659729	339.56131	4.27751
222.167267	339.56488	4.2744
222.601212	339.564667	4.271749
223.110458	339.552856	4.268667
223.638077	339.539459	4.265476
224.124924	339.526764	4.262533
224.646088	339.512878	4.259382
225.134415	339.499847	4.256431
225.647537	339.486053	4.253329
226.146667	339.472565	4.250313
226.647644	339.459015	4.247285
227.153122	339.445343	4.24423
227.657806	339.431641	4.24118
228.15625	339.418152	4.238168
228.663086	339.40451	4.235105
229.169296	339.3909	4.232045
229.655075	339.37796	4.229109
230.181946	339.364044	4.225924
230.653503	339.351776	4.223073
231.187424	339.33844	4.219844
231.678711	339.328033	4.216867
232.140701	339.298035	4.214118
232.646561	339.251007	4.211142
233.144562	339.200958	4.208222
233.641708	339.148499	4.205312
234.140106	339.09375	4.202401
234.638901	339.036285	4.199494
235.132538	338.975525	4.196627
235.62883	338.900421	4.193778
236.115265	338.816406	4.191011
236.608124	338.743103	4.188178
237.106476	338.671295	4.185308
237.605026	338.599915	4.182436
238.102341	338.528107	4.179573
238.595657	338.454285	4.176739
239.050964	338.372833	4.174155
239.536133	338.266235	4.171452
240.052414	338.154755	4.16857
240.524643	338.053223	4.165933
241.031433	337.944519	4.163102
241.512146	337.841553	4.160418
242.016632	337.733582	4.157599
242.500275	337.630157	4.154897
242.992538	337.524841	4.152147
243.487183	337.419067	4.149384
243.978195	337.314056	4.14664
244.466049	337.209686	4.143915
244.967148	337.102386	4.141116
245.441559	337.000763	4.138465
245.955811	336.890411	4.135593
246.422302	336.79007	4.132988
246.932999	336.679688	4.130138
247.370773	336.582031	4.127702
247.839676	336.44812	4.125164
248.353867	336.298431	4.122389
248.805542	336.166473	4.119952
249.31366	336.017639	4.11721
249.776749	335.881958	4.114713
250.265457	335.738617	4.112078
250.748428	335.596954	4.109473
251.228439	335.456116	4.106884
251.713394	335.313873	4.104269
252.197998	335.171753	4.101655
252.676987	335.031403	4.099072
253.163086	334.889069	4.09645
253.648941	334.746979	4.093829
254.118195	334.609955	4.091297
254.620895	334.463501	4.088583
255.084366	334.329132	4.08608
255.58078	334.18631	4.083396
256.024292	334.064178	4.080985
256.485931	333.916016	4.078527
256.965393	333.751282	4.076001
257.449554	333.582062	4.073457
257.91925	333.416321	4.070993
258.393738	333.247803	4.068506
258.868195	333.078339	4.066022
259.342133	332.908264	4.063543
259.812561	332.738678	4.061084
260.288483	332.566254	4.058599
260.76413	332.392792	4.056118
261.223358	332.223907	4.053725
261.69101	332.049255	4.051295
262.119446	331.880859	4.049089
262.594635	331.700592	4.046626
263.073364	331.522766	4.044136
263.553772	331.345612	4.041633
264.016449	331.175629	4.039221
264.496552	330.999603	4.036718
264.963104	330.828827	4.034285
265.436829	330.655457	4.031814
265.909668	330.482422	4.029347
266.378479	330.31073	4.026902
266.855499	330.135864	4.024415
267.32605	329.96283	4.021963
267.793182	329.790375	4.01953
268.276093	329.610535	4.017018
268.735748	329.434174	4.014641
269.177643	329.248901	4.012394
269.598694	329.072144	4.010253
270.088593	328.866486	4.007762
270.531952	328.680389	4.005508
271.018158	328.476288	4.003036
271.468262	328.287323	4.000748
271.92984	328.093597	3.998402
272.406586	327.893463	3.995978
272.861816	327.702362	3.993663
273.324188	327.508301	3.991313
273.79007	327.312714	3.988944
274.255981	327.117126	3.986576
274.718353	326.923035	3.984225
275.173706	326.731903	3.98191
275.650238	326.53186	3.979487
276.112	326.338074	3.977139
276.561523	326.149323	3.974854
277.048187	325.945068	3.972379
277.491943	325.758759	3.970123
277.981201	325.553406	3.967636
278.403656	325.376038	3.965488
278.831177	325.196503	3.963315
279.164063	325.044891	3.961652
279.739685	324.778503	3.958785
280.118591	324.602478	3.956901
280.553558	324.400116	3.954737
281.041077	324.173035	3.952313
281.57782	323.922791	3.949646
281.987305	323.731781	3.94761
282.410583	323.534241	3.945507
282.853546	323.327423	3.943305
283.315277	323.111755	3.941012
283.794403	322.887939	3.938632
284.289673	322.656464	3.936171
284.73172	322.44986	3.933975
285.16571	322.246979	3.931819
285.608582	322.039886	3.929619
286.059723	321.828888	3.927378
286.518555	321.614258	3.925099
286.984375	321.396332	3.922786
287.45639	321.175446	3.920442
287.9198	320.958557	3.91814
288.364471	320.750397	3.915932
288.812897	320.540527	3.913705
289.264252	320.329163	3.911464
289.718262	320.116577	3.909209
290.174225	319.903046	3.906945
290.631531	319.688873	3.904675
291.089722	319.474243	3.9024
291.548309	319.25943	3.900123
292.006683	319.044647	3.897847
292.464264	318.8302	3.895575
292.920532	318.616364	3.89331
293.375122	318.40332	3.891053
293.827271	318.191345	3.888808
294.276489	317.980713	3.886578
294.72226	317.771698	3.884366
295.175781	317.559021	3.882114
295.649292	317.336914	3.879764
296.116882	317.117615	3.877444
296.577484	316.901459	3.875157
297.030823	316.688751	3.872907
297.476074	316.479736	3.870697
297.912506	316.274902	3.868531
298.339417	316.074432	3.866413
298.831024	315.843506	3.863973
299.314667	315.616333	3.861574
299.781281	315.397034	3.859258
300.229675	315.186279	3.857034
300.658478	314.984589	3.854907
301.066711	314.792542	3.852881
301.57135	314.555023	3.850379
302.073364	314.318481	3.84789
302.523834	314.106049	3.845657
302.919067	313.919373	3.843698
303.423615	313.680389	3.841199
303.873383	313.465393	3.838976
304.201752	313.288055	3.837404
304.631592	313.039276	3.835385
305.065369	312.784027	3.833359
305.498718	312.527374	3.831338
305.930939	312.270935	3.829324
306.361328	312.01593	3.827317
306.791138	311.762482	3.825311
307.226471	311.508575	3.823272
307.672882	311.257263	3.821158
308.088562	311.041016	3.819147
308.533783	310.805481	3.817002
308.981873	310.567169	3.814847
309.423431	310.331573	3.812725
309.865112	310.095551	3.810603
310.309753	309.857635	3.808467
310.749146	309.622253	3.806358
311.195465	309.383026	3.804216
311.641907	309.143555	3.802073
312.087311	308.90451	3.799937
312.515839	308.674316	3.79788
312.940186	308.446472	3.795845
313.385345	308.207428	3.79371
313.8284	307.969543	3.791585
314.271667	307.731506	3.789459
314.715454	307.493225	3.787331
315.158539	307.25528	3.785205
315.601471	307.017487	3.783081
316.046753	306.778381	3.780946
316.474335	306.548767	3.778895
316.916321	306.33255	3.776723
317.377167	306.122253	3.774421
317.836395	305.920349	3.772109
318.297272	305.724213	3.769773
318.761444	305.533783	3.767403
319.228638	305.351379	3.764994
319.696991	305.183014	3.762544
320.191254	305.042603	3.759867
320.661072	304.990356	3.757124
321.16217	304.935547	3.754196
321.662781	304.880585	3.751272
322.162994	304.826416	3.748348
322.663696	304.773621	3.745417
323.164764	304.723053	3.74248
323.666321	304.676331	3.739529
324.165527	304.637756	3.736573
324.650116	304.629028	3.733633
325.15155	304.6362	3.730552
325.654602	304.644165	3.72746
326.155762	304.65506	3.724372
326.657104	304.671326	3.721269
327.154572	304.698669	3.718163
327.647034	304.749786	3.715029
328.147339	304.803223	3.71184
328.644043	304.862366	3.708661
329.140381	304.933624	3.705453
329.63446	305.025635	3.702209
330.113464	305.156647	3.698961
330.560944	305.375397	3.695691
331.001648	305.61261	3.692417
331.441467	305.851898	3.689143
331.878754	306.095856	3.685873
332.310333	306.348053	3.682618
332.748627	306.586578	3.679356
333.195709	306.808899	3.676081
333.639862	307.04068	3.6728
334.068542	307.299622	3.669548
334.459259	307.610352	3.666401
334.775665	307.994781	3.663527
335.070007	308.392609	3.660756
335.364838	308.799225	3.65796
335.657623	309.208344	3.655171
335.94812	309.618927	3.652392
336.236633	310.031586	3.649621
336.521667	310.446625	3.646865
336.799042	310.868683	3.644138
336.949371	311.150024	3.642532
337.244019	311.717133	3.639345
337.435425	312.085358	3.637275
337.659363	312.516144	3.634853
337.913574	313.005005	3.632104
338.170654	313.499359	3.629325
338.379089	313.900024	3.627072
338.599091	314.323029	3.624693
338.830078	314.767029	3.622196
339.071167	315.230469	3.61959
339.321716	315.712036	3.616881
339.554993	316.160461	3.61436
339.775177	316.583771	3.611979
340.000458	317.016663	3.609544
340.230469	317.458771	3.607057
340.464752	317.909088	3.604525
340.702728	318.366486	3.601953
340.944275	318.83075	3.599341
341.175293	319.274689	3.596844
341.402679	319.711639	3.594387
341.631866	320.152191	3.591909
341.862793	320.596008	3.589413
342.094879	321.041931	3.586905
342.32782	321.489594	3.584387
342.561279	321.938416	3.581862
342.795074	322.387695	3.579335
343.028809	322.836823	3.576809
343.262177	323.285461	3.574286
343.494843	323.732483	3.571772
343.726349	324.177429	3.569269
343.956512	324.61972	3.566782
344.184875	325.058777	3.564312
344.411316	325.493927	3.561865
344.64975	325.952148	3.559288
344.889832	326.413544	3.556692
345.12619	326.867798	3.554137
345.358612	327.314606	3.551625
345.586517	327.752655	3.549161
345.809723	328.181549	3.546749
346.027466	328.600098	3.544395
346.277069	329.079926	3.541697
346.523468	329.553497	3.539033
346.760223	330.008545	3.536474
346.98645	330.443481	3.534028
347.201447	330.856781	3.531704
347.419006	331.275116	3.529352
347.68924	331.79483	3.526429
347.93042	332.258575	3.523822
348.140381	332.662415	3.521552
348.369995	333.10434	3.519068
348.61557	333.577576	3.51641
348.811584	333.895264	3.514435
349.102966	334.313904	3.511631
349.393494	334.720917	3.508861
349.687897	335.128906	3.506064
349.983856	335.536469	3.503258
350.277832	335.940125	3.500474
350.566803	336.339264	3.497733
350.892578	336.713013	3.494828
351.235229	337.080811	3.491834
351.58139	337.446564	3.488824
351.928131	337.810455	3.485815
352.277252	338.176178	3.482787
352.624725	338.54422	3.479764
352.990448	338.854919	3.476768
353.403625	339.143433	3.473538
353.821747	339.419281	3.470308
354.24588	339.687256	3.467061
354.677887	339.930511	3.463825
355.130493	340.142456	3.460543
355.590027	340.347504	3.457234
356.053619	340.543304	3.453924
356.510803	340.698395	3.450752
357.011017	340.773712	3.447511
357.512756	340.837616	3.444288
358.011169	340.896942	3.441098
358.509521	340.953705	3.437913
359.01358	341.008392	3.4347
359.493164	341.038116	3.431696
360.000336	341.024689	3.428631
360.500397	341.003265	3.425628
361.002502	340.976959	3.422625
361.504089	340.946014	3.419636
362.005768	340.907684	3.416664
362.483887	340.8349	3.413921
362.968536	340.718079	3.411247
363.458862	340.598328	3.408544
363.947876	340.477722	3.405852
364.435944	340.35614	3.403168
364.921875	340.233307	3.4005
365.41098	340.106445	3.397823
365.855774	339.973389	3.395431
366.334869	339.766113	3.39301
366.789886	339.564178	3.390723
367.245605	339.360291	3.388437
367.706268	339.153259	3.386127
368.165588	338.946228	3.383827
368.622711	338.739716	3.381538
369.084564	338.530701	3.379228
369.544495	338.322144	3.376927
370.005035	338.112854	3.374624
370.412323	337.926666	3.372591
370.87674	337.685699	3.370342
371.25885	337.485352	3.368497
371.734863	337.235229	3.3662
372.182373	336.999786	3.364041
372.605499	336.776978	3.362001
373.060883	336.537109	3.359805
373.53653	336.286469	3.357511
373.957764	336.064392	3.35548
374.394562	335.834106	3.353374
374.844482	335.596863	3.351205
375.305603	335.353638	3.348982
375.743622	335.12262	3.346871
376.182953	334.890808	3.344753
376.626953	334.656647	3.342613
377.073547	334.421051	3.34046
377.521484	334.184692	3.338301
377.968811	333.94873	3.336145
378.414001	333.713898	3.333998
378.855652	333.480896	3.331869
379.291779	333.250824	3.329767
379.74588	333.011322	3.327578
380.201019	332.771271	3.325384
380.643677	332.537933	3.32325
381.07193	332.312103	3.321185
381.521545	332.075134	3.319017
381.989899	331.828339	3.316758
382.427399	331.597961	3.314649
382.830505	331.385803	3.312704
383.334747	331.120667	3.310272
383.75885	330.898071	3.308224
384.244629	330.644379	3.305876
384.471893	330.528015	3.304772
385.008942	330.243378	3.302187
385.399078	330.035461	3.300311
385.808472	329.817078	3.298344
386.27655	329.567078	3.296095
386.799561	329.287567	3.293583
387.199219	329.073914	3.291663
387.612091	328.853088	3.28968
388.046387	328.620789	3.287595
388.500275	328.37796	3.285416
388.972443	328.125305	3.283149
389.444824	327.872467	3.28088
389.861359	327.649475	3.27888
390.288116	327.421021	3.276831
390.723846	327.187775	3.274739
391.168152	326.949921	3.272606
391.619751	326.708038	3.270437
392.078278	326.462524	3.268237
392.533661	326.218689	3.26605
392.966095	325.987091	3.263974
393.402466	325.753479	3.26188
393.841949	325.518066	3.25977
394.284088	325.281281	3.257647
394.728241	325.043396	3.255515
395.173859	324.80481	3.253376
395.620148	324.565735	3.251233
396.066681	324.326599	3.249089
396.512756	324.087677	3.246948
396.957733	323.849335	3.244812
397.401123	323.611877	3.242683
397.842255	323.375671	3.240566
398.280396	323.140961	3.238462
398.715057	322.908234	3.236376
399.152252	322.674103	3.234277
399.614288	322.426697	3.232059
400.07016	322.182617	3.22987
400.518585	321.942505	3.227717
400.959106	321.706665	3.225602
401.391113	321.475372	3.223528
401.813354	321.249359	3.221501
402.245728	321.017914	3.219425
402.727692	320.759979	3.217111
403.191986	320.511566	3.214881
403.637421	320.273224	3.212742
404.062531	320.045807	3.2107
404.465851	319.830231	3.208764
404.927032	319.58371	3.206549
405.426514	319.316833	3.204149
405.869446	319.080353	3.202021
406.251709	318.876465	3.200184
406.774017	318.598572	3.197671
407.102417	318.426086	3.196087
407.474884	318.239105	3.194268
407.910767	318.018066	3.192146
408.350616	317.794617	3.190004
408.868866	317.531036	3.187482
409.270844	317.326477	3.185526
409.703033	317.106506	3.183423
410.163239	316.872192	3.181185
410.648987	316.624786	3.178822
411.074371	316.408112	3.176752
411.509003	316.186707	3.174638
411.956055	315.958984	3.172463
412.41391	315.725708	3.170236
412.878693	315.488831	3.167975
413.31601	315.265961	3.165848
413.758636	315.040466	3.163695
414.2052	314.812836	3.161523
414.65451	314.583771	3.159337
415.105408	314.354004	3.157144
415.556702	314.124054	3.15495
416.006897	313.894592	3.15276
416.454865	313.66629	3.150581
416.899475	313.439728	3.148418
417.339355	313.215546	3.146279
417.790741	312.985535	3.144083
418.252991	312.75	3.141835
418.705353	312.519531	3.139634
419.145782	312.295105	3.137492
419.573029	312.077545	3.135413
420.034912	311.842255	3.133167
420.507111	311.601776	3.130869
420.952423	311.375153	3.128703
421.368073	311.163544	3.12668
421.838867	310.924042	3.12439
422.315613	310.681702	3.122069
422.709412	310.481842	3.120151
423.223907	310.22171	3.117644
423.561798	310.049011	3.116002
424.005371	309.811859	3.113872
424.447998	309.572845	3.111753
424.883179	309.336487	3.109672
425.329163	309.093201	3.107543
425.768494	308.852448	3.105448
426.21106	308.608826	3.10334
426.645782	308.368286	3.101273
427.091705	308.119904	3.099156
427.532379	307.872101	3.09707
427.962219	307.626709	3.095044
428.407135	307.361725	3.092974
428.755859	307.072693	3.091551
429.127777	306.733521	3.090108
429.502808	306.389404	3.088659
429.871521	306.049866	3.087237
430.23941	305.709991	3.08582
430.609741	305.366791	3.084397
430.97522	305.026947	3.082996
431.346313	304.680237	3.081577
431.715393	304.333008	3.080171
432.081757	303.983948	3.078787
432.411621	303.65033	3.077588
432.729248	303.259949	3.076602
433.042419	302.869598	3.075644
433.355103	302.47467	3.074699
433.664215	302.077637	3.073782
433.96698	301.678741	3.072909
434.26355	301.267273	3.072103
434.485565	300.852661	3.07176
434.629913	300.364105	3.072074
434.765839	299.880707	3.072425
434.899261	299.394745	3.072799
435.029907	298.908325	3.07319
435.157501	298.4216	3.073601
435.28125	297.932465	3.074041
435.396149	297.442169	3.074538
435.437286	296.959839	3.075467
435.415192	296.467255	3.076807
435.388336	295.9617	3.078208
435.360291	295.468933	3.079585
435.330414	294.965424	3.080999
435.299377	294.462402	3.082419
435.267365	293.961334	3.083841
435.233826	293.455536	3.085283
435.199127	292.955292	3.086719
435.16217	292.458466	3.08816
435.115601	291.941376	3.08971
434.960114	291.519379	3.091692
434.747009	291.059723	3.09412
434.529602	290.604462	3.096563
434.309326	290.148987	3.099025
434.088989	289.696716	3.101478
433.868713	289.245819	3.103928
433.646362	288.790985	3.1064
433.424927	288.336151	3.108866
433.206085	287.880554	3.111319
433.046906	287.525177	3.113162
432.802856	287.03949	3.11584
432.592834	286.629791	3.118127
432.374939	286.207001	3.120492
432.122284	285.718231	3.123232
431.876282	285.243347	3.125896
431.665039	284.835968	3.128184
431.440643	284.4039	3.130612
431.204163	283.948853	3.13317
430.956635	283.472839	3.135847
430.717804	283.014069	3.138428
430.497528	282.590851	3.14081
430.271484	282.156708	3.143253
430.04007	281.712677	3.145753
429.803894	281.259613	3.148304
429.563507	280.798431	3.150902
429.327301	280.345459	3.153453
429.099823	279.909363	3.15591
428.870178	279.469299	3.15839
428.638672	279.025574	3.16089
428.405731	278.579376	3.163405
428.171906	278.131439	3.16593
427.9375	277.682587	3.16846
427.703003	277.233612	3.17099
427.469055	276.785583	3.173517
427.235687	276.338867	3.176035
427.00351	275.894501	3.178541
426.773071	275.45343	3.181028
426.544525	275.016205	3.183494
426.312286	274.571747	3.186
426.070465	274.109131	3.18861
425.832581	273.653992	3.191177
425.599243	273.207764	3.193694
425.370941	272.771057	3.196158
425.148285	272.345337	3.198559
424.918549	271.905975	3.201038
424.666931	271.425018	3.203752
424.426208	270.964722	3.206349
424.197113	270.526794	3.208819
423.980774	270.113251	3.211154
423.751556	269.67511	3.213626
423.487427	269.170349	3.216475
423.257019	268.72998	3.21896
423.063202	268.359558	3.22105
422.77594	267.810669	3.224148
422.624664	267.490784	3.225855
422.444122	267.020294	3.22811
422.272614	266.546875	3.230318
422.106476	266.075775	3.232486
421.940552	265.594727	3.234678
421.825684	265.123199	3.236532
421.733002	264.626648	3.238314
421.64801	264.132507	3.240042
421.568939	263.636719	3.241738
421.502136	263.133911	3.243376
421.536743	262.651825	3.244343
421.596313	262.154358	3.245196
421.661255	261.654602	3.246021
421.729401	261.156433	3.246823
421.801514	260.655975	3.247607
421.881714	260.158478	3.248334
422.031464	259.69873	3.248543
422.203278	259.230225	3.24864
422.381012	258.758575	3.248708
422.561188	258.289734	3.248755
422.744568	257.821777	3.24878
422.934906	257.354095	3.248761
423.159515	256.932373	3.24842
423.421448	256.493042	3.247893
423.678619	256.064362	3.24737
423.937927	255.633194	3.246839
424.198425	255.201523	3.246302
424.458374	254.77269	3.245762
424.714844	254.356552	3.245212
424.995544	253.957962	3.244472
425.287567	253.548355	3.24369
425.580627	253.139252	3.2429
425.876801	252.727295	3.242097
426.170502	252.320419	3.241298
426.466431	251.912262	3.240488
426.763611	251.504639	3.239669
427.056366	251.106323	3.238855
427.35733	250.702072	3.238004
427.666931	250.300507	3.237095
428.029144	250.009766	3.235593
428.461151	249.750626	3.233587
428.897797	249.494598	3.231545
429.335876	249.24054	3.229491
429.770294	248.990189	3.227449
430.207031	248.739761	3.225393
430.646362	248.488861	3.223323
431.084717	248.239532	3.221255
431.525879	247.989716	3.219171
431.914276	247.774948	3.217322
432.376709	247.547958	3.215052
432.827087	247.328781	3.212837
433.286591	247.105621	3.210575
433.739441	246.885895	3.208345
434.190918	246.666824	3.206123
434.644379	246.446823	3.203891
435.098114	246.226563	3.201658
435.548737	246.007492	3.19944
436.002136	245.786758	3.197209
436.460663	245.562851	3.194955
436.90976	245.3423	3.192751
437.37088	245.111328	3.190499
437.492798	245.045227	3.189915
437.744049	244.911911	3.188705
438.168976	244.687454	3.186658
438.759796	244.375702	3.18381
439.50885	243.98082	3.180199
439.886078	243.781952	3.17838
440.230896	243.600266	3.176717
440.596069	243.407883	3.174956
440.981171	243.205002	3.173099
441.385345	242.992065	3.17115
441.809143	242.76886	3.169106
442.251587	242.535812	3.166973
442.712402	242.293076	3.16475
443.191132	242.04097	3.162441
443.687439	241.779602	3.160048
444.200806	241.509293	3.157572
444.730957	241.230148	3.155015
445.277466	240.942459	3.15238
445.694458	240.722839	3.150368
446.083282	240.518158	3.148493
446.479767	240.309448	3.146581
446.88269	240.097336	3.144637
447.292908	239.881287	3.142658
447.710083	239.661713	3.140647
448.133148	239.438934	3.138607
448.563324	239.21257	3.136531
448.999847	238.982727	3.134426
449.441864	238.750031	3.132294
449.890808	238.513779	3.130129
450.344849	238.274689	3.127938
450.805542	238.032181	3.125716
451.271851	237.786713	3.123467
451.743164	237.53862	3.121194
452.220612	237.287292	3.118891
452.703339	237.033157	3.116562
453.190613	236.776718	3.114212
453.683655	236.517136	3.111834
454.131073	236.281677	3.109676
454.544708	236.06398	3.107681
454.961548	235.844559	3.105671
455.38147	235.623505	3.103645
455.804565	235.400818	3.101604
456.230621	235.17659	3.099549
456.659546	234.950821	3.09748
457.091461	234.723465	3.095397
457.526093	234.49472	3.093301
457.96344	234.264526	3.091191
458.403351	234.032928	3.089069
458.845978	233.799957	3.086934
459.291046	233.565735	3.084788
459.738586	233.330185	3.082629
460.188385	233.093307	3.080459
460.640533	232.855392	3.078278
461.095001	232.616211	3.076086
461.551483	232.375931	3.073885
462.009949	232.134598	3.071673
462.470703	231.892151	3.069451
462.933105	231.648712	3.06722
463.397522	231.404251	3.06498
463.86377	231.158859	3.062731
464.322418	230.91745	3.060519
464.753418	230.690582	3.05844
465.186584	230.462616	3.056351
465.621124	230.233902	3.054255
466.055969	230.005035	3.052157
466.492889	229.77504	3.05005
466.930847	229.544495	3.047938
467.369049	229.313828	3.045824
467.809143	229.082214	3.043701
468.250153	228.850113	3.041574
468.692047	228.617493	3.039443
469.13385	228.384949	3.037311
469.577423	228.151474	3.035172
470.021637	227.917648	3.033029
470.465729	227.683868	3.030887
470.911316	227.449371	3.028738
471.357361	227.214569	3.026587
471.803162	226.979919	3.024436
472.250305	226.744568	3.02228
472.697693	226.509018	3.020122
473.144592	226.273788	3.017966
473.592712	226.037918	3.015805
474.041016	225.801941	3.013643
474.488647	225.566284	3.011483
474.937256	225.330154	3.00932
475.385925	225.093979	3.007156
475.83374	224.858231	3.004996
476.282318	224.622101	3.002832
476.72998	224.386444	3.000673
477.178345	224.150421	2.99851
477.626526	223.91452	2.996349
478.073517	223.679214	2.994192
478.521057	223.443588	2.992034
478.968262	223.20816	2.989877
479.414124	222.973434	2.987726
479.860443	222.738556	2.985574
480.305237	222.504364	2.983428
480.750305	222.270035	2.981282
481.194672	222.036133	2.979138
481.637573	221.802917	2.977002
482.080566	221.569687	2.974866
482.522736	221.336945	2.972733
482.963104	221.105118	2.970609
483.403351	220.873276	2.968485
483.841858	220.642456	2.966371
484.280182	220.411636	2.964257
484.717377	220.181473	2.962148
485.152527	219.952332	2.960049
485.587341	219.723434	2.957952
486.020935	219.495148	2.955861
486.452301	219.268036	2.953781
486.902252	219.031082	2.95161
487.368805	218.785431	2.94936
487.83374	218.540665	2.947118
488.296722	218.296829	2.944885
488.756989	218.054443	2.942665
489.216187	217.812653	2.94045
489.673279	217.571991	2.938246
490.128204	217.332413	2.936052
490.580963	217.094025	2.933868
491.031464	216.856827	2.931696
491.47879	216.621201	2.929538
491.924438	216.386475	2.927389
492.367645	216.153076	2.925251
492.808441	215.920975	2.923126
493.24646	215.690186	2.921013
493.681946	215.460938	2.918914
494.114471	215.233078	2.916827
494.543427	215.007141	2.914758
494.970306	214.782257	2.9127
495.394196	214.559052	2.910656
495.815002	214.337372	2.908627
496.232758	214.117371	2.906612
496.647186	213.899017	2.904613
497.074402	213.673981	2.902553
497.568115	213.413864	2.900172
498.056702	213.156525	2.897816
498.540222	212.901794	2.895484
499.019104	212.649521	2.893176
499.491852	212.400421	2.890896
499.959045	212.154221	2.888643
500.420563	211.911011	2.886417
500.876953	211.670502	2.884217
501.326782	211.433472	2.882048
501.770508	211.199677	2.879908
502.208099	210.969025	2.877798
502.640076	210.741364	2.875715
503.064911	210.517502	2.873667
503.483063	210.296982	2.87165
503.894745	210.080032	2.869666
504.30011	209.866287	2.867711
504.697906	209.656525	2.865793
505.088745	209.45047	2.863909
505.47229	209.248276	2.86206
506.012482	208.963348	2.859456
506.546539	208.681717	2.856881
507.063965	208.408752	2.854387
507.564056	208.144836	2.851976
508.04718	207.89003	2.849648
508.512573	207.644409	2.847405
508.959717	207.408356	2.845249
509.387787	207.182266	2.843186
509.797455	206.965973	2.841212
510.187683	206.759796	2.839332
510.558105	206.564102	2.837547
510.908264	206.378983	2.83586
511.237579	206.204834	2.834273
511.937225	205.834534	2.830904
512.570557	205.498749	2.827855
513.041565	205.248154	2.825589
513.342407	205.08699	2.824145
513.465759	205.019012	2.823557
513.811707	204.756836	2.822085
514.215027	204.450928	2.82037
514.615906	204.146591	2.818665
515.018616	203.840546	2.816953
515.419373	203.535812	2.81525
515.818604	203.231827	2.813555
516.221375	202.924637	2.811846
516.623047	202.617294	2.810144
517.024109	202.308548	2.808448
517.368958	202.033707	2.807014
517.763611	201.707138	2.805401
518.153015	201.386169	2.803806
518.551392	201.058121	2.802174
518.933289	200.74382	2.80061
519.32489	200.421478	2.799006
519.711731	200.103119	2.797421
520.102173	199.781677	2.795821
520.488037	199.463898	2.794241
520.880859	199.140274	2.792632
521.258911	198.828476	2.791085
521.658569	198.498505	2.78945
522.051025	198.173553	2.787847
522.426575	197.858948	2.786321
522.771729	197.527496	2.785024
523.127197	197.179291	2.783703
523.485291	196.826828	2.782378
523.842773	196.473785	2.781057
524.199463	196.120422	2.779742
524.556824	195.764847	2.778429
524.915405	195.405304	2.777118
525.241211	195.056473	2.77598
525.57196	194.67453	2.774894
525.898254	194.293945	2.77383
526.223877	193.911163	2.772777
526.548035	193.52562	2.77174
526.854675	193.143356	2.770801
527.176453	192.756363	2.769785
527.503479	192.374878	2.768724
527.825439	191.988983	2.767704
528.083923	191.571167	2.767148
528.322998	191.128006	2.766773
528.560059	190.683868	2.766412
528.80365	190.24437	2.766
529.036377	189.829651	2.765592
529.250916	189.373779	2.765397
529.46283	188.910614	2.765237
529.669067	188.453232	2.765095
529.873474	187.996201	2.764965
530.078735	187.534683	2.764841
530.280701	187.07785	2.764724
530.485474	186.612885	2.764611
530.68866	186.149292	2.764504
530.890381	185.686401	2.764405
531.079834	185.245041	2.764327
531.232361	184.770187	2.764556
531.373352	184.29425	2.76486
531.512695	183.811523	2.765189
531.649231	183.328323	2.765536
531.78302	182.845901	2.765899
531.913635	182.362106	2.766284
532.041016	181.86879	2.766713
532.137573	181.407578	2.767251
532.218506	180.901199	2.767996
532.301941	180.409012	2.76869
532.387573	179.913391	2.76938
532.474182	179.418167	2.770062
532.561462	178.924057	2.770738
532.64978	178.428787	2.77141
532.740234	177.928513	2.772082
532.82489	177.473083	2.772679
532.905701	176.95961	2.77344
532.980469	176.463669	2.774196
533.053711	175.97081	2.774954
533.127075	175.475266	2.775717
533.200623	174.976212	2.776487
533.274231	174.478119	2.777255
533.348022	173.982925	2.778015
533.423523	173.484024	2.778773
533.503174	172.992615	2.779488
533.615051	172.520386	2.77996
533.739746	172.03273	2.780392
533.867554	171.548126	2.780797
533.998962	171.063858	2.781179
534.134338	170.580811	2.781534
534.276367	170.097107	2.781849
534.432007	169.614258	2.78208
534.649963	169.187424	2.781793
534.923767	168.770233	2.781141
535.200378	168.347534	2.780485
535.474731	167.928009	2.779835
535.75061	167.506409	2.779181
536.024414	167.088196	2.778531
536.294434	166.67836	2.777884
536.586304	166.270081	2.777099
536.879272	165.867691	2.776292
537.176147	165.461594	2.775471
537.473511	165.055313	2.774648
537.770874	164.64859	2.773826
538.068176	164.240936	2.773006
538.35553	163.843475	2.772222
538.685852	163.492493	2.771063
539.099365	163.194916	2.769264
539.517273	162.913712	2.767399
539.936523	162.640305	2.765506
540.358215	162.370941	2.763589
540.783203	162.10347	2.761647
541.217407	161.833984	2.759654
541.631775	161.582611	2.757736
542.063843	161.327972	2.755721
542.495361	161.075974	2.753701
542.931213	160.824524	2.751654
543.36615	160.578949	2.749598
543.809143	160.36113	2.747425
544.28656	160.211319	2.744875
544.770325	160.075897	2.742252
545.255676	159.946838	2.739603
545.742615	159.822113	2.736934
546.230042	159.702728	2.734249
546.713257	159.608978	2.731525
547.208801	159.531754	2.728687
547.704346	159.461517	2.725831
548.200562	159.399261	2.722952
548.695251	159.359756	2.720026
549.191101	159.33046	2.717068
549.696838	159.301361	2.714051
550.197021	159.274841	2.71106
550.700073	159.251877	2.708044
551.19928	159.236252	2.705033
551.690308	159.247452	2.702006
552.190857	159.305893	2.698804
552.684387	159.359879	2.695655
553.183655	159.414566	2.692469
553.683594	159.470551	2.689278
554.183105	159.528702	2.686082
554.683899	159.591095	2.682869
555.180603	159.662491	2.679659
555.647278	159.783005	2.676512
556.12207	159.937881	2.673232
556.601929	160.09668	2.669911
557.077515	160.256317	2.666614
557.552429	160.418747	2.663314
558.028992	160.586792	2.659991
558.494934	160.762451	2.656714
558.93158	160.977966	2.653519
559.378418	161.212296	2.650217
559.822083	161.448242	2.646929
560.263611	161.690231	2.643641
560.695801	161.943283	2.640382
561.0849	162.241013	2.637277
561.45697	162.571716	2.634195
561.836365	162.906601	2.631058
562.212341	163.238388	2.62795
562.589478	163.571915	2.62483
562.964539	163.90593	2.621722
563.336853	164.246017	2.618616
563.677429	164.595627	2.61568
564.01947	164.956161	2.612709
564.363281	165.322723	2.609712
564.705383	165.691757	2.606719
565.043701	166.062256	2.603746
565.377563	166.4375	2.600789
565.680054	166.813934	2.59802
565.942261	167.246796	2.595361
566.190491	167.68187	2.592781
566.43457	168.122101	2.590214
566.672729	168.563553	2.587682
566.90509	169.010422	2.585171
567.12384	169.463623	2.582728
567.273254	169.926514	2.580683
567.402039	170.413086	2.578706
567.530457	170.898788	2.576734
567.659058	171.384964	2.574759
567.782776	171.853317	2.572858
567.87439	172.350113	2.571084
567.951782	172.847855	2.569395
568.022522	173.34581	2.567746
568.087158	173.844879	2.566131
568.143738	174.345108	2.564564
568.177307	174.846832	2.563132
568.159973	175.333115	2.56205
568.148682	175.833557	2.560897
568.138794	176.336792	2.559728
568.128906	176.840195	2.55856
568.117493	177.336365	2.557418
568.097473	177.825653	2.556344
568.069397	178.330185	2.555282
568.041992	178.833282	2.55422
568.013916	179.334564	2.553166
567.983643	179.836441	2.552124
567.947388	180.338898	2.551117
567.854004	180.818039	2.550517
567.71637	181.298508	2.550183
567.568054	181.779495	2.549915
567.413879	182.25882	2.549685
567.256287	182.731674	2.549492
567.092041	183.18663	2.549383
566.888611	183.650818	2.549491
566.681152	184.110031	2.549636
566.47168	184.567657	2.549797
566.261353	185.022919	2.549969
566.047241	185.481522	2.550156
565.835083	185.926758	2.550363
565.590515	186.353241	2.550814
565.311035	186.772415	2.551497
565.026672	187.187073	2.552222
564.739258	187.599136	2.552971
564.447571	188.010849	2.553747
564.153809	188.41246	2.55456
563.827515	188.780029	2.555656
563.480286	189.145035	2.556886
563.130432	189.503632	2.558148
562.77594	189.859055	2.559446
562.418213	190.194839	2.560812
562.025635	190.510223	2.56244
561.629578	190.819214	2.564106
561.231567	191.125458	2.565791
560.830017	191.43074	2.5675
560.4245	191.732574	2.56924
560.021179	192.0009	2.571049
559.596313	192.272034	2.572983
559.171692	192.538635	2.574926
558.742737	192.803513	2.5769
558.321106	193.051636	2.578871
557.845703	193.202728	2.581407
557.355164	193.32222	2.584114
556.864624	193.431015	2.586848
556.372314	193.53421	2.589604
555.876709	193.633621	2.592391
555.403992	193.712021	2.595089
554.904358	193.768509	2.598005
554.402344	193.824097	2.600938
553.90332	193.880508	2.60385
553.404907	193.939407	2.606752
552.908203	194.002502	2.609634
552.40802	194.075195	2.612514
551.94397	194.176407	2.615103
551.481445	194.322998	2.617571
550.979187	194.474808	2.62027
550.515442	194.613434	2.622765
550.022461	194.760071	2.625421
549.547668	194.900742	2.627979
549.057373	195.045776	2.630621
548.580139	195.186676	2.633193
548.096252	195.329605	2.635802
547.611938	195.47261	2.638413
547.133789	195.613831	2.64099
546.644958	195.758392	2.643625
546.167725	195.899765	2.646196
545.677979	196.045303	2.648834
545.208679	196.185577	2.65136
544.707947	196.336746	2.654051
544.231873	196.486328	2.656594
543.813232	196.647141	2.65876
543.348083	196.82695	2.661163
542.889282	197.004364	2.663533
542.403748	197.192108	2.666042
541.946167	197.368973	2.668405
541.473083	197.551788	2.670849
541.00293	197.733673	2.673279
540.536377	197.913986	2.675689
540.064819	198.096283	2.678125
539.594177	198.278244	2.680556
539.130066	198.457687	2.682954
538.654175	198.641632	2.685413
538.1875	198.822067	2.687823
537.717285	199.003906	2.690253
537.246338	199.185928	2.692686
536.768738	199.370544	2.695153
536.312927	199.546799	2.697507
535.947937	199.694336	2.699377
535.461609	199.92218	2.701792
535.018372	200.132813	2.703985
534.534668	200.363663	2.706377
534.107971	200.567841	2.708485
533.644409	200.789993	2.710774
533.172974	201.016174	2.713102
532.737854	201.225189	2.71525
532.286255	201.442184	2.717479
531.820557	201.66597	2.719778
531.367981	201.883591	2.722011
530.920349	202.098938	2.72422
530.46759	202.316711	2.726454
530.011841	202.535965	2.728703
529.555847	202.755386	2.730953
529.101379	202.973938	2.733195
528.650696	203.190811	2.73542
528.206238	203.404526	2.737613
527.740845	203.628281	2.739909
527.281799	203.848938	2.742176
526.837769	204.06218	2.744367
526.395813	204.274338	2.746549
525.915283	204.504807	2.748922
525.469299	204.718399	2.751125
525.036499	204.925262	2.753264
524.542664	205.160507	2.755706
524.141907	205.350159	2.757691
523.719421	205.543701	2.7598
523.273254	205.759293	2.761999
522.866211	205.961517	2.763992
522.413513	206.188004	2.766205
521.913269	206.439178	2.768648
521.503845	206.645187	2.770646
521.063721	206.86702	2.772793
520.595459	207.103394	2.775077
520.125427	207.340897	2.777368
519.698425	207.55687	2.77945
519.258057	207.779846	2.781596
518.805786	208.008865	2.7838
518.343018	208.243469	2.786055
517.89325	208.471603	2.788245
517.452087	208.695541	2.790393
517.006714	208.921707	2.792562
516.557739	209.149796	2.794748
516.106995	209.379013	2.796943
515.655579	209.608551	2.79914
515.205078	209.837845	2.801332
514.756287	210.06633	2.803516
514.311523	210.292969	2.80568
513.871094	210.517502	2.807822
513.420654	210.747299	2.810013
512.958679	210.982971	2.812259
512.507507	211.213516	2.814453
512.068665	211.437927	2.816587
511.643829	211.655304	2.818651
511.171631	211.897186	2.820946
510.70636	212.135818	2.823205
510.269989	212.360001	2.825324
509.86499	212.568436	2.827289
509.360138	212.829025	2.829737
508.917755	213.058426	2.83188
508.48584	213.284409	2.833967
508.106384	213.494568	2.835771
507.716003	213.810974	2.837384
507.34021	214.144211	2.838867
506.976624	214.492493	2.840239
506.643707	214.866714	2.84136
506.46344	215.323517	2.841345
506.317963	215.804016	2.84106
506.193359	216.289337	2.840636
506.148315	216.780777	2.83971
506.124847	217.284363	2.838623
506.107361	217.785858	2.837504
506.095856	218.287689	2.836348
506.100494	218.793701	2.835082
506.199799	219.266708	2.833319
506.320313	219.758545	2.83138
506.445618	220.244293	2.829427
506.577728	220.728088	2.827438
506.724823	221.212372	2.825354
506.966034	221.616287	2.822893
507.285767	222.00386	2.819993
507.610779	222.391006	2.817062
507.937256	222.777176	2.814124
508.262482	223.160965	2.8112
508.586243	223.54332	2.808289
508.91217	223.929367	2.805354
509.236633	224.31633	2.802427
509.546783	224.695145	2.799607
509.842865	225.094681	2.796821
510.162018	225.480347	2.793929
510.49054	225.859055	2.790997
510.831116	226.232651	2.788003
511.229919	226.508545	2.784894
511.691956	226.707062	2.781588
512.159607	226.886993	2.778293
512.628235	227.014099	2.775121
513.130066	226.929367	2.772261
513.618408	226.820267	2.769544
514.105896	226.701981	2.766854
514.59613	226.575272	2.764167
515.045471	226.434647	2.761766
515.484741	226.171082	2.759727
515.910583	225.904327	2.757776
516.336731	225.634293	2.755832
516.761475	225.363388	2.7539
517.184143	225.092651	2.751979
517.606812	224.821045	2.75006
518.03595	224.5448	2.748114
518.41864	224.302734	2.746368
518.870117	224.039368	2.744252
519.296997	223.792068	2.742249
519.733154	223.539841	2.7402
520.174805	223.284683	2.738125
520.606201	223.035614	2.736099
521.044006	222.782776	2.734041
521.476563	222.532928	2.732009
521.917664	222.278244	2.729937
522.35083	222.027725	2.727902
522.77478	221.782104	2.725912
523.216553	221.524963	2.723841
523.529846	221.345779	2.722365
524.0401	221.073196	2.719914
524.437012	220.862259	2.718004
524.91217	220.610275	2.715717
525.384705	220.359955	2.713442
525.793335	220.143585	2.711473
526.230469	219.912292	2.709368
526.693054	219.667648	2.70714
527.172974	219.413895	2.704828
527.591431	219.192657	2.702811
528.022705	218.964767	2.700733
528.465515	218.730743	2.698599
528.918945	218.491211	2.696414
529.380859	218.247147	2.694189
529.819641	218.015381	2.692075
530.257263	217.784256	2.689965
530.699158	217.550858	2.687836
531.144043	217.315933	2.685692
531.591003	217.079758	2.683538
532.038757	216.843277	2.68138
532.486511	216.606796	2.679222
532.932983	216.371017	2.677071
533.377197	216.136444	2.67493
533.817932	215.903549	2.672806
534.254272	215.673126	2.670703
534.701355	215.436905	2.668549
535.161316	215.193909	2.666333
535.611755	214.955887	2.664162
536.051575	214.723511	2.662043
536.479675	214.497223	2.65998
536.911682	214.268829	2.657899
537.391357	214.015198	2.655588
537.847107	213.774094	2.653393
538.276367	213.546951	2.651325
538.67688	213.334915	2.649396
539.180481	213.068085	2.646971
539.634827	212.827026	2.644785
540.009216	212.62796	2.642984
