-1.0	3.9	1.0
-0.0	3.9	1.0
1.0	3.9	1.0
2.0	3.9	1.0
3.0	3.9	1.0
3.999999	3.9	1.0
5.0	3.9	1.0
6.0	3.9	1.0
6.999999	3.9	1.0
7.999999	3.9	1.0
8.999999	3.9	1.0
10.0	3.9	1.0
10.999997	3.9	1.0
12.0	3.9	1.0
13.0	3.9	1.0
13.999998	3.9	1.0
14.999998	3.9	1.0
15.999998	3.9	1.0
16.999998	3.9	1.0
18.0	3.9	1.0
18.999996	3.9	1.0
19.999996	3.9	1.0
20.999996	3.9	1.0
22.0	3.9	1.0
23.0	3.9	1.0
23.999996	3.9	1.0
24.999996	3.9	1.0
25.999996	3.9	1.0
26.999996	3.9	1.0
27.999996	3.9	1.0
29.0	3.9	1.0
29.999996	3.9	1.0
31.0	3.9	1.0
31.999994	3.9	1.0
33.0	3.9	1.0
34.0	3.9	1.0
34.999996	3.9	1.0
36.0	3.9	1.0
37.0	3.9	1.0
38.0	3.9	1.0
38.999992	3.9	1.0
40.0	3.9	1.0
40.999992	3.9	1.0
42.0	3.9	1.0
42.999992	3.9	1.0
44.0	3.9	1.0
44.999992	3.9	1.0
46.0	3.9	1.0
46.999992	3.9	1.0
47.999992	3.9	1.0
49.0	3.9	1.0
50.0	3.9	1.0
50.999992	3.9	1.0
51.999992	3.9	1.0
52.999992	3.9	1.0
53.999992	3.9	1.0
54.999989	3.9	1.0
55.999992	3.9	1.0
57.0	3.9	1.0
57.999992	3.9	1.0
59.0	3.9	1.0
59.999992	3.9	1.0
60.999989	3.9	1.0
62.0	3.9	1.0
63.0	3.9	1.0
64.0	3.9	1.0
64.999992	3.9	1.0
66.0	3.9	1.0
66.999992	3.9	1.0
67.999992	3.9	1.0
68.999992	3.9	1.0
69.999992	3.9	1.0
70.999992	3.9	1.0
71.999992	3.9	1.0
73.0	3.9	1.0
74.0	3.9	1.0
74.999992	3.9	1.0
75.999985	3.9	1.0
76.999992	3.9	1.0
77.999985	3.9	1.0
78.999985	3.9	1.0
79.999985	3.9	1.0
81.0	3.9	1.0
81.999985	3.9	1.0
82.999977	3.9	1.0
84.0	3.9	1.0
84.999985	3.9	1.0
85.999985	3.9	1.0
86.999985	3.9	1.0
88.0	3.9	1.0
89.0	3.9	1.0
90.0	3.9	1.0
91.0	3.9	1.0
92.0	3.9	1.0
92.999985	3.9	1.0
93.999985	3.9	1.0
95.0	3.9	1.0
95.999985	3.9	1.0
96.999977	3.9	1.0
97.999985	3.9	1.0
98.999985	3.9	1.0
99.999985	3.9	1.0
101.0	3.9	1.0
102.0	3.9	1.0
102.999985	3.9	1.0
104.0	3.9	1.0
104.999985	3.9	1.0
106.0	3.9	1.0
107.0	3.9	1.0
108.0	3.9	1.0
109.0	3.9	1.0
109.999985	3.9	1.0
110.999977	3.9	1.0
112.0	3.9	1.0
112.999985	3.9	1.0
114.0	3.9	1.0
114.999977	3.9	1.0
116.0	3.9	1.0
116.999985	3.9	1.0
117.999985	3.9	1.0
118.999977	3.9	1.0
119.999985	3.9	1.0
120.999985	3.9	1.0
121.999985	3.9	1.0
122.999985	3.9	1.0
123.999977	3.9	1.0
125.0	3.9	1.0
125.999985	3.9	1.0
126.999985	3.9	1.0
128.0	3.9	1.0
129.0	3.9	1.0
130.0	3.9	1.0
130.999985	3.9	1.0
131.999985	3.9	1.0
132.999985	3.9	1.0
134.0	3.9	1.0
135.0	3.9	1.0
135.999985	3.9	1.0
137.0	3.9	1.0
137.999985	3.9	1.0
138.999985	3.9	1.0
139.999985	3.9	1.0
140.999985	3.9	1.0
142.0	3.9	1.0
143.0	3.9	1.0
144.0	3.9	1.0
144.999985	3.9	1.0
145.999985	3.9	1.0
147.0	3.9	1.0
147.999969	3.9	1.0
148.999985	3.9	1.0
149.999985	3.9	1.0
150.999985	3.9	1.0
151.999985	3.9	1.0
152.999969	3.9	1.0
153.999969	3.9	1.0
155.0	3.9	1.0
155.999969	3.9	1.0
156.999969	3.9	1.0
158.0	3.9	1.0
158.999969	3.9	1.0
160.0	3.9	1.0
160.999969	3.9	1.0
161.999969	3.9	1.0
163.000015	3.9	1.0
163.999969	3.9	1.0
164.999969	3.9	1.0
166.0	3.9	1.0
166.999969	3.9	1.0
167.999954	3.9	1.0
168.999969	3.9	1.0
169.999969	3.9	1.0
170.999969	3.9	1.0
171.999969	3.9	1.0
172.999969	3.9	1.0
173.999954	3.9	1.0
174.999969	3.9	1.0
175.999969	3.9	1.0
176.999954	3.9	1.0
177.999969	3.9	1.0
179.0	3.9	1.0
180.0	3.9	1.0
181.0	3.9	1.0
181.999954	3.9	1.0
182.999954	3.9	1.0
183.999969	3.9	1.0
185.0	3.9	1.0
185.999954	3.9	1.0
186.999969	3.9	1.0
188.0	3.9	1.0
188.999954	3.9	1.0
190.0	3.9	1.0
191.0	3.9	1.0
191.999969	3.9	1.0
192.999954	3.9	1.0
193.999954	3.9	1.0
194.999954	3.9	1.0
195.999969	3.9	1.0
196.999954	3.9	1.0
198.0	3.9	1.0
198.999969	3.9	1.0
199.999969	3.9	1.0
200.999969	3.9	1.0
202.0	3.9	1.0
202.999969	3.9	1.0
203.999954	3.9	1.0
205.0	3.9	1.0
205.999954	3.9	1.0
206.999969	3.9	1.0
207.999969	3.9	1.0
208.999969	3.9	1.0
209.999969	3.9	1.0
210.999969	3.9	1.0
211.999969	3.9	1.0
212.999969	3.9	1.0
214.000015	3.9	1.0
214.999969	3.9	1.0
216.0	3.9	1.0
216.999969	3.9	1.0
217.999954	3.9	1.0
219.0	3.9	1.0
219.999969	3.9	1.0
220.999954	3.9	1.0
221.999969	3.9	1.0
222.999969	3.9	1.0
223.999969	3.9	1.0
225.0	3.9	1.0
226.000015	3.9	1.0
227.0	3.9	1.0
228.0	3.9	1.0
228.999969	3.9	1.0
229.999954	3.9	1.0
230.999954	3.9	1.0
232.0	3.9	1.0
233.0	3.9	1.0
233.999954	3.9	1.0
235.000015	3.9	1.0
236.0	3.9	1.0
236.999954	3.9	1.0
238.000015	3.9	1.0
239.0	3.9	1.0
239.999969	3.9	1.0
240.999954	3.9	1.0
241.999969	3.9	1.0
242.999939	3.9	1.0
244.000015	3.9	1.0
244.999954	3.9	1.0
245.999969	3.9	1.0
246.999969	3.9	1.0
248.0	3.9	1.0
248.999954	3.9	1.0
250.0	3.9	1.0
251.000015	3.9	1.0
252.000031	3.9	1.0
253.0	3.9	1.0
253.999954	3.9	1.0
255.000015	3.9	1.0
255.999954	3.9	1.0
257.0	3.9	1.0
257.999969	3.9	1.0
259.0	3.9	1.0
259.999969	3.9	1.0
261.0	3.9	1.0
261.999969	3.9	1.0
262.999969	3.9	1.0
263.999969	3.9	1.0
265.0	3.9	1.0
266.0	3.9	1.0
267.0	3.9	1.0
267.999969	3.9	1.0
268.999969	3.9	1.0
270.0	3.9	1.0
271.0	3.9	1.0
272.0	3.9	1.0
273.0	3.9	1.0
274.0	3.9	1.0
275.0	3.9	1.0
275.999969	3.9	1.0
277.0	3.9	1.0
277.999969	3.9	1.0
